(kicad_sch (version 20211123) (generator eeschema)

  (uuid 6680fe07-ef4e-4290-a388-9974a2d76b2c)

  (paper "A4")

  (lib_symbols
    (symbol "Connector:Conn_Coaxial" (pin_names (offset 1.016) hide) (in_bom yes) (on_board yes)
      (property "Reference" "J" (id 0) (at 0.254 3.048 0)
        (effects (font (size 1.27 1.27)))
      )
      (property "Value" "Conn_Coaxial" (id 1) (at 2.921 0 90)
        (effects (font (size 1.27 1.27)))
      )
      (property "Footprint" "" (id 2) (at 0 0 0)
        (effects (font (size 1.27 1.27)) hide)
      )
      (property "Datasheet" " ~" (id 3) (at 0 0 0)
        (effects (font (size 1.27 1.27)) hide)
      )
      (property "ki_keywords" "BNC SMA SMB SMC LEMO coaxial connector CINCH RCA" (id 4) (at 0 0 0)
        (effects (font (size 1.27 1.27)) hide)
      )
      (property "ki_description" "coaxial connector (BNC, SMA, SMB, SMC, Cinch/RCA, LEMO, ...)" (id 5) (at 0 0 0)
        (effects (font (size 1.27 1.27)) hide)
      )
      (property "ki_fp_filters" "*BNC* *SMA* *SMB* *SMC* *Cinch* *LEMO*" (id 6) (at 0 0 0)
        (effects (font (size 1.27 1.27)) hide)
      )
      (symbol "Conn_Coaxial_0_1"
        (arc (start -1.778 -0.508) (mid 0.2311 -1.8066) (end 1.778 0)
          (stroke (width 0.254) (type default) (color 0 0 0 0))
          (fill (type none))
        )
        (polyline
          (pts
            (xy -2.54 0)
            (xy -0.508 0)
          )
          (stroke (width 0) (type default) (color 0 0 0 0))
          (fill (type none))
        )
        (polyline
          (pts
            (xy 0 -2.54)
            (xy 0 -1.778)
          )
          (stroke (width 0) (type default) (color 0 0 0 0))
          (fill (type none))
        )
        (circle (center 0 0) (radius 0.508)
          (stroke (width 0.2032) (type default) (color 0 0 0 0))
          (fill (type none))
        )
        (arc (start 1.778 0) (mid 0.2099 1.8101) (end -1.778 0.508)
          (stroke (width 0.254) (type default) (color 0 0 0 0))
          (fill (type none))
        )
      )
      (symbol "Conn_Coaxial_1_1"
        (pin passive line (at -5.08 0 0) (length 2.54)
          (name "In" (effects (font (size 1.27 1.27))))
          (number "1" (effects (font (size 1.27 1.27))))
        )
        (pin passive line (at 0 -5.08 90) (length 2.54)
          (name "Ext" (effects (font (size 1.27 1.27))))
          (number "2" (effects (font (size 1.27 1.27))))
        )
      )
    )
    (symbol "Connector:Screw_Terminal_01x02" (pin_names (offset 1.016) hide) (in_bom yes) (on_board yes)
      (property "Reference" "J" (id 0) (at 0 2.54 0)
        (effects (font (size 1.27 1.27)))
      )
      (property "Value" "Screw_Terminal_01x02" (id 1) (at 0 -5.08 0)
        (effects (font (size 1.27 1.27)))
      )
      (property "Footprint" "" (id 2) (at 0 0 0)
        (effects (font (size 1.27 1.27)) hide)
      )
      (property "Datasheet" "~" (id 3) (at 0 0 0)
        (effects (font (size 1.27 1.27)) hide)
      )
      (property "ki_keywords" "screw terminal" (id 4) (at 0 0 0)
        (effects (font (size 1.27 1.27)) hide)
      )
      (property "ki_description" "Generic screw terminal, single row, 01x02, script generated (kicad-library-utils/schlib/autogen/connector/)" (id 5) (at 0 0 0)
        (effects (font (size 1.27 1.27)) hide)
      )
      (property "ki_fp_filters" "TerminalBlock*:*" (id 6) (at 0 0 0)
        (effects (font (size 1.27 1.27)) hide)
      )
      (symbol "Screw_Terminal_01x02_1_1"
        (rectangle (start -1.27 1.27) (end 1.27 -3.81)
          (stroke (width 0.254) (type default) (color 0 0 0 0))
          (fill (type background))
        )
        (circle (center 0 -2.54) (radius 0.635)
          (stroke (width 0.1524) (type default) (color 0 0 0 0))
          (fill (type none))
        )
        (polyline
          (pts
            (xy -0.5334 -2.2098)
            (xy 0.3302 -3.048)
          )
          (stroke (width 0.1524) (type default) (color 0 0 0 0))
          (fill (type none))
        )
        (polyline
          (pts
            (xy -0.5334 0.3302)
            (xy 0.3302 -0.508)
          )
          (stroke (width 0.1524) (type default) (color 0 0 0 0))
          (fill (type none))
        )
        (polyline
          (pts
            (xy -0.3556 -2.032)
            (xy 0.508 -2.8702)
          )
          (stroke (width 0.1524) (type default) (color 0 0 0 0))
          (fill (type none))
        )
        (polyline
          (pts
            (xy -0.3556 0.508)
            (xy 0.508 -0.3302)
          )
          (stroke (width 0.1524) (type default) (color 0 0 0 0))
          (fill (type none))
        )
        (circle (center 0 0) (radius 0.635)
          (stroke (width 0.1524) (type default) (color 0 0 0 0))
          (fill (type none))
        )
        (pin passive line (at -5.08 0 0) (length 3.81)
          (name "Pin_1" (effects (font (size 1.27 1.27))))
          (number "1" (effects (font (size 1.27 1.27))))
        )
        (pin passive line (at -5.08 -2.54 0) (length 3.81)
          (name "Pin_2" (effects (font (size 1.27 1.27))))
          (number "2" (effects (font (size 1.27 1.27))))
        )
      )
    )
    (symbol "Connector_Generic:Conn_01x03" (pin_names (offset 1.016) hide) (in_bom yes) (on_board yes)
      (property "Reference" "J" (id 0) (at 0 5.08 0)
        (effects (font (size 1.27 1.27)))
      )
      (property "Value" "Conn_01x03" (id 1) (at 0 -5.08 0)
        (effects (font (size 1.27 1.27)))
      )
      (property "Footprint" "" (id 2) (at 0 0 0)
        (effects (font (size 1.27 1.27)) hide)
      )
      (property "Datasheet" "~" (id 3) (at 0 0 0)
        (effects (font (size 1.27 1.27)) hide)
      )
      (property "ki_keywords" "connector" (id 4) (at 0 0 0)
        (effects (font (size 1.27 1.27)) hide)
      )
      (property "ki_description" "Generic connector, single row, 01x03, script generated (kicad-library-utils/schlib/autogen/connector/)" (id 5) (at 0 0 0)
        (effects (font (size 1.27 1.27)) hide)
      )
      (property "ki_fp_filters" "Connector*:*_1x??_*" (id 6) (at 0 0 0)
        (effects (font (size 1.27 1.27)) hide)
      )
      (symbol "Conn_01x03_1_1"
        (rectangle (start -1.27 -2.413) (end 0 -2.667)
          (stroke (width 0.1524) (type default) (color 0 0 0 0))
          (fill (type none))
        )
        (rectangle (start -1.27 0.127) (end 0 -0.127)
          (stroke (width 0.1524) (type default) (color 0 0 0 0))
          (fill (type none))
        )
        (rectangle (start -1.27 2.667) (end 0 2.413)
          (stroke (width 0.1524) (type default) (color 0 0 0 0))
          (fill (type none))
        )
        (rectangle (start -1.27 3.81) (end 1.27 -3.81)
          (stroke (width 0.254) (type default) (color 0 0 0 0))
          (fill (type background))
        )
        (pin passive line (at -5.08 2.54 0) (length 3.81)
          (name "Pin_1" (effects (font (size 1.27 1.27))))
          (number "1" (effects (font (size 1.27 1.27))))
        )
        (pin passive line (at -5.08 0 0) (length 3.81)
          (name "Pin_2" (effects (font (size 1.27 1.27))))
          (number "2" (effects (font (size 1.27 1.27))))
        )
        (pin passive line (at -5.08 -2.54 0) (length 3.81)
          (name "Pin_3" (effects (font (size 1.27 1.27))))
          (number "3" (effects (font (size 1.27 1.27))))
        )
      )
    )
    (symbol "Connector_Generic:Conn_01x04" (pin_names (offset 1.016) hide) (in_bom yes) (on_board yes)
      (property "Reference" "J" (id 0) (at 0 5.08 0)
        (effects (font (size 1.27 1.27)))
      )
      (property "Value" "Conn_01x04" (id 1) (at 0 -7.62 0)
        (effects (font (size 1.27 1.27)))
      )
      (property "Footprint" "" (id 2) (at 0 0 0)
        (effects (font (size 1.27 1.27)) hide)
      )
      (property "Datasheet" "~" (id 3) (at 0 0 0)
        (effects (font (size 1.27 1.27)) hide)
      )
      (property "ki_keywords" "connector" (id 4) (at 0 0 0)
        (effects (font (size 1.27 1.27)) hide)
      )
      (property "ki_description" "Generic connector, single row, 01x04, script generated (kicad-library-utils/schlib/autogen/connector/)" (id 5) (at 0 0 0)
        (effects (font (size 1.27 1.27)) hide)
      )
      (property "ki_fp_filters" "Connector*:*_1x??_*" (id 6) (at 0 0 0)
        (effects (font (size 1.27 1.27)) hide)
      )
      (symbol "Conn_01x04_1_1"
        (rectangle (start -1.27 -4.953) (end 0 -5.207)
          (stroke (width 0.1524) (type default) (color 0 0 0 0))
          (fill (type none))
        )
        (rectangle (start -1.27 -2.413) (end 0 -2.667)
          (stroke (width 0.1524) (type default) (color 0 0 0 0))
          (fill (type none))
        )
        (rectangle (start -1.27 0.127) (end 0 -0.127)
          (stroke (width 0.1524) (type default) (color 0 0 0 0))
          (fill (type none))
        )
        (rectangle (start -1.27 2.667) (end 0 2.413)
          (stroke (width 0.1524) (type default) (color 0 0 0 0))
          (fill (type none))
        )
        (rectangle (start -1.27 3.81) (end 1.27 -6.35)
          (stroke (width 0.254) (type default) (color 0 0 0 0))
          (fill (type background))
        )
        (pin passive line (at -5.08 2.54 0) (length 3.81)
          (name "Pin_1" (effects (font (size 1.27 1.27))))
          (number "1" (effects (font (size 1.27 1.27))))
        )
        (pin passive line (at -5.08 0 0) (length 3.81)
          (name "Pin_2" (effects (font (size 1.27 1.27))))
          (number "2" (effects (font (size 1.27 1.27))))
        )
        (pin passive line (at -5.08 -2.54 0) (length 3.81)
          (name "Pin_3" (effects (font (size 1.27 1.27))))
          (number "3" (effects (font (size 1.27 1.27))))
        )
        (pin passive line (at -5.08 -5.08 0) (length 3.81)
          (name "Pin_4" (effects (font (size 1.27 1.27))))
          (number "4" (effects (font (size 1.27 1.27))))
        )
      )
    )
    (symbol "Device:C_Small" (pin_numbers hide) (pin_names (offset 0.254) hide) (in_bom yes) (on_board yes)
      (property "Reference" "C" (id 0) (at 0.254 1.778 0)
        (effects (font (size 1.27 1.27)) (justify left))
      )
      (property "Value" "C_Small" (id 1) (at 0.254 -2.032 0)
        (effects (font (size 1.27 1.27)) (justify left))
      )
      (property "Footprint" "" (id 2) (at 0 0 0)
        (effects (font (size 1.27 1.27)) hide)
      )
      (property "Datasheet" "~" (id 3) (at 0 0 0)
        (effects (font (size 1.27 1.27)) hide)
      )
      (property "ki_keywords" "capacitor cap" (id 4) (at 0 0 0)
        (effects (font (size 1.27 1.27)) hide)
      )
      (property "ki_description" "Unpolarized capacitor, small symbol" (id 5) (at 0 0 0)
        (effects (font (size 1.27 1.27)) hide)
      )
      (property "ki_fp_filters" "C_*" (id 6) (at 0 0 0)
        (effects (font (size 1.27 1.27)) hide)
      )
      (symbol "C_Small_0_1"
        (polyline
          (pts
            (xy -1.524 -0.508)
            (xy 1.524 -0.508)
          )
          (stroke (width 0.3302) (type default) (color 0 0 0 0))
          (fill (type none))
        )
        (polyline
          (pts
            (xy -1.524 0.508)
            (xy 1.524 0.508)
          )
          (stroke (width 0.3048) (type default) (color 0 0 0 0))
          (fill (type none))
        )
      )
      (symbol "C_Small_1_1"
        (pin passive line (at 0 2.54 270) (length 2.032)
          (name "~" (effects (font (size 1.27 1.27))))
          (number "1" (effects (font (size 1.27 1.27))))
        )
        (pin passive line (at 0 -2.54 90) (length 2.032)
          (name "~" (effects (font (size 1.27 1.27))))
          (number "2" (effects (font (size 1.27 1.27))))
        )
      )
    )
    (symbol "Device:LED" (pin_numbers hide) (pin_names (offset 1.016) hide) (in_bom yes) (on_board yes)
      (property "Reference" "D" (id 0) (at 0 2.54 0)
        (effects (font (size 1.27 1.27)))
      )
      (property "Value" "LED" (id 1) (at 0 -2.54 0)
        (effects (font (size 1.27 1.27)))
      )
      (property "Footprint" "" (id 2) (at 0 0 0)
        (effects (font (size 1.27 1.27)) hide)
      )
      (property "Datasheet" "~" (id 3) (at 0 0 0)
        (effects (font (size 1.27 1.27)) hide)
      )
      (property "ki_keywords" "LED diode" (id 4) (at 0 0 0)
        (effects (font (size 1.27 1.27)) hide)
      )
      (property "ki_description" "Light emitting diode" (id 5) (at 0 0 0)
        (effects (font (size 1.27 1.27)) hide)
      )
      (property "ki_fp_filters" "LED* LED_SMD:* LED_THT:*" (id 6) (at 0 0 0)
        (effects (font (size 1.27 1.27)) hide)
      )
      (symbol "LED_0_1"
        (polyline
          (pts
            (xy -1.27 -1.27)
            (xy -1.27 1.27)
          )
          (stroke (width 0.254) (type default) (color 0 0 0 0))
          (fill (type none))
        )
        (polyline
          (pts
            (xy -1.27 0)
            (xy 1.27 0)
          )
          (stroke (width 0) (type default) (color 0 0 0 0))
          (fill (type none))
        )
        (polyline
          (pts
            (xy 1.27 -1.27)
            (xy 1.27 1.27)
            (xy -1.27 0)
            (xy 1.27 -1.27)
          )
          (stroke (width 0.254) (type default) (color 0 0 0 0))
          (fill (type none))
        )
        (polyline
          (pts
            (xy -3.048 -0.762)
            (xy -4.572 -2.286)
            (xy -3.81 -2.286)
            (xy -4.572 -2.286)
            (xy -4.572 -1.524)
          )
          (stroke (width 0) (type default) (color 0 0 0 0))
          (fill (type none))
        )
        (polyline
          (pts
            (xy -1.778 -0.762)
            (xy -3.302 -2.286)
            (xy -2.54 -2.286)
            (xy -3.302 -2.286)
            (xy -3.302 -1.524)
          )
          (stroke (width 0) (type default) (color 0 0 0 0))
          (fill (type none))
        )
      )
      (symbol "LED_1_1"
        (pin passive line (at -3.81 0 0) (length 2.54)
          (name "K" (effects (font (size 1.27 1.27))))
          (number "1" (effects (font (size 1.27 1.27))))
        )
        (pin passive line (at 3.81 0 180) (length 2.54)
          (name "A" (effects (font (size 1.27 1.27))))
          (number "2" (effects (font (size 1.27 1.27))))
        )
      )
    )
    (symbol "Device:L_Small" (pin_numbers hide) (pin_names (offset 0.254) hide) (in_bom yes) (on_board yes)
      (property "Reference" "L" (id 0) (at 0.762 1.016 0)
        (effects (font (size 1.27 1.27)) (justify left))
      )
      (property "Value" "L_Small" (id 1) (at 0.762 -1.016 0)
        (effects (font (size 1.27 1.27)) (justify left))
      )
      (property "Footprint" "" (id 2) (at 0 0 0)
        (effects (font (size 1.27 1.27)) hide)
      )
      (property "Datasheet" "~" (id 3) (at 0 0 0)
        (effects (font (size 1.27 1.27)) hide)
      )
      (property "ki_keywords" "inductor choke coil reactor magnetic" (id 4) (at 0 0 0)
        (effects (font (size 1.27 1.27)) hide)
      )
      (property "ki_description" "Inductor, small symbol" (id 5) (at 0 0 0)
        (effects (font (size 1.27 1.27)) hide)
      )
      (property "ki_fp_filters" "Choke_* *Coil* Inductor_* L_*" (id 6) (at 0 0 0)
        (effects (font (size 1.27 1.27)) hide)
      )
      (symbol "L_Small_0_1"
        (arc (start 0 -2.032) (mid 0.508 -1.524) (end 0 -1.016)
          (stroke (width 0) (type default) (color 0 0 0 0))
          (fill (type none))
        )
        (arc (start 0 -1.016) (mid 0.508 -0.508) (end 0 0)
          (stroke (width 0) (type default) (color 0 0 0 0))
          (fill (type none))
        )
        (arc (start 0 0) (mid 0.508 0.508) (end 0 1.016)
          (stroke (width 0) (type default) (color 0 0 0 0))
          (fill (type none))
        )
        (arc (start 0 1.016) (mid 0.508 1.524) (end 0 2.032)
          (stroke (width 0) (type default) (color 0 0 0 0))
          (fill (type none))
        )
      )
      (symbol "L_Small_1_1"
        (pin passive line (at 0 2.54 270) (length 0.508)
          (name "~" (effects (font (size 1.27 1.27))))
          (number "1" (effects (font (size 1.27 1.27))))
        )
        (pin passive line (at 0 -2.54 90) (length 0.508)
          (name "~" (effects (font (size 1.27 1.27))))
          (number "2" (effects (font (size 1.27 1.27))))
        )
      )
    )
    (symbol "Device:R_Small" (pin_numbers hide) (pin_names (offset 0.254) hide) (in_bom yes) (on_board yes)
      (property "Reference" "R" (id 0) (at 0.762 0.508 0)
        (effects (font (size 1.27 1.27)) (justify left))
      )
      (property "Value" "R_Small" (id 1) (at 0.762 -1.016 0)
        (effects (font (size 1.27 1.27)) (justify left))
      )
      (property "Footprint" "" (id 2) (at 0 0 0)
        (effects (font (size 1.27 1.27)) hide)
      )
      (property "Datasheet" "~" (id 3) (at 0 0 0)
        (effects (font (size 1.27 1.27)) hide)
      )
      (property "ki_keywords" "R resistor" (id 4) (at 0 0 0)
        (effects (font (size 1.27 1.27)) hide)
      )
      (property "ki_description" "Resistor, small symbol" (id 5) (at 0 0 0)
        (effects (font (size 1.27 1.27)) hide)
      )
      (property "ki_fp_filters" "R_*" (id 6) (at 0 0 0)
        (effects (font (size 1.27 1.27)) hide)
      )
      (symbol "R_Small_0_1"
        (rectangle (start -0.762 1.778) (end 0.762 -1.778)
          (stroke (width 0.2032) (type default) (color 0 0 0 0))
          (fill (type none))
        )
      )
      (symbol "R_Small_1_1"
        (pin passive line (at 0 2.54 270) (length 0.762)
          (name "~" (effects (font (size 1.27 1.27))))
          (number "1" (effects (font (size 1.27 1.27))))
        )
        (pin passive line (at 0 -2.54 90) (length 0.762)
          (name "~" (effects (font (size 1.27 1.27))))
          (number "2" (effects (font (size 1.27 1.27))))
        )
      )
    )
    (symbol "Device:Thermistor_NTC" (pin_numbers hide) (pin_names (offset 0)) (in_bom yes) (on_board yes)
      (property "Reference" "TH" (id 0) (at -4.445 0 90)
        (effects (font (size 1.27 1.27)))
      )
      (property "Value" "Thermistor_NTC" (id 1) (at 3.175 0 90)
        (effects (font (size 1.27 1.27)))
      )
      (property "Footprint" "" (id 2) (at 0 1.27 0)
        (effects (font (size 1.27 1.27)) hide)
      )
      (property "Datasheet" "~" (id 3) (at 0 1.27 0)
        (effects (font (size 1.27 1.27)) hide)
      )
      (property "ki_keywords" "thermistor NTC resistor sensor RTD" (id 4) (at 0 0 0)
        (effects (font (size 1.27 1.27)) hide)
      )
      (property "ki_description" "Temperature dependent resistor, negative temperature coefficient" (id 5) (at 0 0 0)
        (effects (font (size 1.27 1.27)) hide)
      )
      (property "ki_fp_filters" "*NTC* *Thermistor* PIN?ARRAY* bornier* *Terminal?Block* R_*" (id 6) (at 0 0 0)
        (effects (font (size 1.27 1.27)) hide)
      )
      (symbol "Thermistor_NTC_0_1"
        (arc (start -3.048 2.159) (mid -3.0495 2.3143) (end -3.175 2.413)
          (stroke (width 0) (type default) (color 0 0 0 0))
          (fill (type none))
        )
        (arc (start -3.048 2.159) (mid -2.9736 1.9794) (end -2.794 1.905)
          (stroke (width 0) (type default) (color 0 0 0 0))
          (fill (type none))
        )
        (arc (start -3.048 2.794) (mid -2.9736 2.6144) (end -2.794 2.54)
          (stroke (width 0) (type default) (color 0 0 0 0))
          (fill (type none))
        )
        (arc (start -2.794 1.905) (mid -2.6144 1.9794) (end -2.54 2.159)
          (stroke (width 0) (type default) (color 0 0 0 0))
          (fill (type none))
        )
        (arc (start -2.794 2.54) (mid -2.4393 2.5587) (end -2.159 2.794)
          (stroke (width 0) (type default) (color 0 0 0 0))
          (fill (type none))
        )
        (arc (start -2.794 3.048) (mid -2.9736 2.9736) (end -3.048 2.794)
          (stroke (width 0) (type default) (color 0 0 0 0))
          (fill (type none))
        )
        (arc (start -2.54 2.794) (mid -2.6144 2.9736) (end -2.794 3.048)
          (stroke (width 0) (type default) (color 0 0 0 0))
          (fill (type none))
        )
        (rectangle (start -1.016 2.54) (end 1.016 -2.54)
          (stroke (width 0.254) (type default) (color 0 0 0 0))
          (fill (type none))
        )
        (polyline
          (pts
            (xy -2.54 2.159)
            (xy -2.54 2.794)
          )
          (stroke (width 0) (type default) (color 0 0 0 0))
          (fill (type none))
        )
        (polyline
          (pts
            (xy -1.778 2.54)
            (xy -1.778 1.524)
            (xy 1.778 -1.524)
            (xy 1.778 -2.54)
          )
          (stroke (width 0) (type default) (color 0 0 0 0))
          (fill (type none))
        )
        (polyline
          (pts
            (xy -2.54 -3.683)
            (xy -2.54 -1.397)
            (xy -2.794 -2.159)
            (xy -2.286 -2.159)
            (xy -2.54 -1.397)
            (xy -2.54 -1.651)
          )
          (stroke (width 0) (type default) (color 0 0 0 0))
          (fill (type outline))
        )
        (polyline
          (pts
            (xy -1.778 -1.397)
            (xy -1.778 -3.683)
            (xy -2.032 -2.921)
            (xy -1.524 -2.921)
            (xy -1.778 -3.683)
            (xy -1.778 -3.429)
          )
          (stroke (width 0) (type default) (color 0 0 0 0))
          (fill (type outline))
        )
      )
      (symbol "Thermistor_NTC_1_1"
        (pin passive line (at 0 3.81 270) (length 1.27)
          (name "~" (effects (font (size 1.27 1.27))))
          (number "1" (effects (font (size 1.27 1.27))))
        )
        (pin passive line (at 0 -3.81 90) (length 1.27)
          (name "~" (effects (font (size 1.27 1.27))))
          (number "2" (effects (font (size 1.27 1.27))))
        )
      )
    )
    (symbol "Jumper:SolderJumper_3_Bridged12" (pin_names (offset 0) hide) (in_bom yes) (on_board yes)
      (property "Reference" "JP" (id 0) (at -2.54 -2.54 0)
        (effects (font (size 1.27 1.27)))
      )
      (property "Value" "SolderJumper_3_Bridged12" (id 1) (at 0 2.794 0)
        (effects (font (size 1.27 1.27)))
      )
      (property "Footprint" "" (id 2) (at 0 0 0)
        (effects (font (size 1.27 1.27)) hide)
      )
      (property "Datasheet" "~" (id 3) (at 0 0 0)
        (effects (font (size 1.27 1.27)) hide)
      )
      (property "ki_keywords" "Solder Jumper SPDT" (id 4) (at 0 0 0)
        (effects (font (size 1.27 1.27)) hide)
      )
      (property "ki_description" "3-pole Solder Jumper, pins 1+2 closed/bridged" (id 5) (at 0 0 0)
        (effects (font (size 1.27 1.27)) hide)
      )
      (property "ki_fp_filters" "SolderJumper*Bridged12*" (id 6) (at 0 0 0)
        (effects (font (size 1.27 1.27)) hide)
      )
      (symbol "SolderJumper_3_Bridged12_0_1"
        (rectangle (start -1.016 0.508) (end -0.508 -0.508)
          (stroke (width 0) (type default) (color 0 0 0 0))
          (fill (type outline))
        )
        (arc (start -1.016 1.016) (mid -2.032 0) (end -1.016 -1.016)
          (stroke (width 0) (type default) (color 0 0 0 0))
          (fill (type none))
        )
        (arc (start -1.016 1.016) (mid -2.032 0) (end -1.016 -1.016)
          (stroke (width 0) (type default) (color 0 0 0 0))
          (fill (type outline))
        )
        (rectangle (start -0.508 1.016) (end 0.508 -1.016)
          (stroke (width 0) (type default) (color 0 0 0 0))
          (fill (type outline))
        )
        (polyline
          (pts
            (xy -2.54 0)
            (xy -2.032 0)
          )
          (stroke (width 0) (type default) (color 0 0 0 0))
          (fill (type none))
        )
        (polyline
          (pts
            (xy -1.016 1.016)
            (xy -1.016 -1.016)
          )
          (stroke (width 0) (type default) (color 0 0 0 0))
          (fill (type none))
        )
        (polyline
          (pts
            (xy 0 -1.27)
            (xy 0 -1.016)
          )
          (stroke (width 0) (type default) (color 0 0 0 0))
          (fill (type none))
        )
        (polyline
          (pts
            (xy 1.016 1.016)
            (xy 1.016 -1.016)
          )
          (stroke (width 0) (type default) (color 0 0 0 0))
          (fill (type none))
        )
        (polyline
          (pts
            (xy 2.54 0)
            (xy 2.032 0)
          )
          (stroke (width 0) (type default) (color 0 0 0 0))
          (fill (type none))
        )
        (arc (start 1.016 -1.016) (mid 2.032 0) (end 1.016 1.016)
          (stroke (width 0) (type default) (color 0 0 0 0))
          (fill (type none))
        )
        (arc (start 1.016 -1.016) (mid 2.032 0) (end 1.016 1.016)
          (stroke (width 0) (type default) (color 0 0 0 0))
          (fill (type outline))
        )
      )
      (symbol "SolderJumper_3_Bridged12_1_1"
        (pin passive line (at -5.08 0 0) (length 2.54)
          (name "A" (effects (font (size 1.27 1.27))))
          (number "1" (effects (font (size 1.27 1.27))))
        )
        (pin passive line (at 0 -3.81 90) (length 2.54)
          (name "C" (effects (font (size 1.27 1.27))))
          (number "2" (effects (font (size 1.27 1.27))))
        )
        (pin passive line (at 5.08 0 180) (length 2.54)
          (name "B" (effects (font (size 1.27 1.27))))
          (number "3" (effects (font (size 1.27 1.27))))
        )
      )
    )
    (symbol "LED:WS2812B" (pin_names (offset 0.254)) (in_bom yes) (on_board yes)
      (property "Reference" "D" (id 0) (at 5.08 5.715 0)
        (effects (font (size 1.27 1.27)) (justify right bottom))
      )
      (property "Value" "WS2812B" (id 1) (at 1.27 -5.715 0)
        (effects (font (size 1.27 1.27)) (justify left top))
      )
      (property "Footprint" "LED_SMD:LED_WS2812B_PLCC4_5.0x5.0mm_P3.2mm" (id 2) (at 1.27 -7.62 0)
        (effects (font (size 1.27 1.27)) (justify left top) hide)
      )
      (property "Datasheet" "https://cdn-shop.adafruit.com/datasheets/WS2812B.pdf" (id 3) (at 2.54 -9.525 0)
        (effects (font (size 1.27 1.27)) (justify left top) hide)
      )
      (property "ki_keywords" "RGB LED NeoPixel addressable" (id 4) (at 0 0 0)
        (effects (font (size 1.27 1.27)) hide)
      )
      (property "ki_description" "RGB LED with integrated controller" (id 5) (at 0 0 0)
        (effects (font (size 1.27 1.27)) hide)
      )
      (property "ki_fp_filters" "LED*WS2812*PLCC*5.0x5.0mm*P3.2mm*" (id 6) (at 0 0 0)
        (effects (font (size 1.27 1.27)) hide)
      )
      (symbol "WS2812B_0_0"
        (text "RGB" (at 2.286 -4.191 0)
          (effects (font (size 0.762 0.762)))
        )
      )
      (symbol "WS2812B_0_1"
        (polyline
          (pts
            (xy 1.27 -3.556)
            (xy 1.778 -3.556)
          )
          (stroke (width 0) (type default) (color 0 0 0 0))
          (fill (type none))
        )
        (polyline
          (pts
            (xy 1.27 -2.54)
            (xy 1.778 -2.54)
          )
          (stroke (width 0) (type default) (color 0 0 0 0))
          (fill (type none))
        )
        (polyline
          (pts
            (xy 4.699 -3.556)
            (xy 2.667 -3.556)
          )
          (stroke (width 0) (type default) (color 0 0 0 0))
          (fill (type none))
        )
        (polyline
          (pts
            (xy 2.286 -2.54)
            (xy 1.27 -3.556)
            (xy 1.27 -3.048)
          )
          (stroke (width 0) (type default) (color 0 0 0 0))
          (fill (type none))
        )
        (polyline
          (pts
            (xy 2.286 -1.524)
            (xy 1.27 -2.54)
            (xy 1.27 -2.032)
          )
          (stroke (width 0) (type default) (color 0 0 0 0))
          (fill (type none))
        )
        (polyline
          (pts
            (xy 3.683 -1.016)
            (xy 3.683 -3.556)
            (xy 3.683 -4.064)
          )
          (stroke (width 0) (type default) (color 0 0 0 0))
          (fill (type none))
        )
        (polyline
          (pts
            (xy 4.699 -1.524)
            (xy 2.667 -1.524)
            (xy 3.683 -3.556)
            (xy 4.699 -1.524)
          )
          (stroke (width 0) (type default) (color 0 0 0 0))
          (fill (type none))
        )
        (rectangle (start 5.08 5.08) (end -5.08 -5.08)
          (stroke (width 0.254) (type default) (color 0 0 0 0))
          (fill (type background))
        )
      )
      (symbol "WS2812B_1_1"
        (pin power_in line (at 0 7.62 270) (length 2.54)
          (name "VDD" (effects (font (size 1.27 1.27))))
          (number "1" (effects (font (size 1.27 1.27))))
        )
        (pin output line (at 7.62 0 180) (length 2.54)
          (name "DOUT" (effects (font (size 1.27 1.27))))
          (number "2" (effects (font (size 1.27 1.27))))
        )
        (pin power_in line (at 0 -7.62 90) (length 2.54)
          (name "VSS" (effects (font (size 1.27 1.27))))
          (number "3" (effects (font (size 1.27 1.27))))
        )
        (pin input line (at -7.62 0 0) (length 2.54)
          (name "DIN" (effects (font (size 1.27 1.27))))
          (number "4" (effects (font (size 1.27 1.27))))
        )
      )
    )
    (symbol "MCU_Microchip_ATtiny:ATtiny402-SS" (in_bom yes) (on_board yes)
      (property "Reference" "U" (id 0) (at -12.7 13.97 0)
        (effects (font (size 1.27 1.27)) (justify left bottom))
      )
      (property "Value" "ATtiny402-SS" (id 1) (at 2.54 -13.97 0)
        (effects (font (size 1.27 1.27)) (justify left top))
      )
      (property "Footprint" "Package_SO:SOIC-8_3.9x4.9mm_P1.27mm" (id 2) (at 0 0 0)
        (effects (font (size 1.27 1.27) italic) hide)
      )
      (property "Datasheet" "http://ww1.microchip.com/downloads/en/DeviceDoc/ATtiny202-402-AVR-MCU-with-Core-Independent-Peripherals_and-picoPower-40001969A.pdf" (id 3) (at 0 0 0)
        (effects (font (size 1.27 1.27)) hide)
      )
      (property "ki_keywords" "AVR 8bit Microcontroller tinyAVR" (id 4) (at 0 0 0)
        (effects (font (size 1.27 1.27)) hide)
      )
      (property "ki_description" "20MHz, 4kB Flash, 256B SRAM, 128B EEPROM, SOIC-8" (id 5) (at 0 0 0)
        (effects (font (size 1.27 1.27)) hide)
      )
      (property "ki_fp_filters" "SOIC*3.9x4.9mm*P1.27mm*" (id 6) (at 0 0 0)
        (effects (font (size 1.27 1.27)) hide)
      )
      (symbol "ATtiny402-SS_0_1"
        (rectangle (start -12.7 -12.7) (end 12.7 12.7)
          (stroke (width 0.254) (type default) (color 0 0 0 0))
          (fill (type background))
        )
      )
      (symbol "ATtiny402-SS_1_1"
        (pin power_in line (at 0 15.24 270) (length 2.54)
          (name "VCC" (effects (font (size 1.27 1.27))))
          (number "1" (effects (font (size 1.27 1.27))))
        )
        (pin bidirectional line (at 15.24 -2.54 180) (length 2.54)
          (name "PA6" (effects (font (size 1.27 1.27))))
          (number "2" (effects (font (size 1.27 1.27))))
        )
        (pin bidirectional line (at 15.24 -5.08 180) (length 2.54)
          (name "PA7" (effects (font (size 1.27 1.27))))
          (number "3" (effects (font (size 1.27 1.27))))
        )
        (pin bidirectional line (at 15.24 5.08 180) (length 2.54)
          (name "PA1" (effects (font (size 1.27 1.27))))
          (number "4" (effects (font (size 1.27 1.27))))
        )
        (pin bidirectional line (at 15.24 2.54 180) (length 2.54)
          (name "PA2" (effects (font (size 1.27 1.27))))
          (number "5" (effects (font (size 1.27 1.27))))
        )
        (pin bidirectional line (at 15.24 7.62 180) (length 2.54)
          (name "~{RESET}/PA0" (effects (font (size 1.27 1.27))))
          (number "6" (effects (font (size 1.27 1.27))))
        )
        (pin bidirectional line (at 15.24 0 180) (length 2.54)
          (name "PA3" (effects (font (size 1.27 1.27))))
          (number "7" (effects (font (size 1.27 1.27))))
        )
        (pin power_in line (at 0 -15.24 90) (length 2.54)
          (name "GND" (effects (font (size 1.27 1.27))))
          (number "8" (effects (font (size 1.27 1.27))))
        )
      )
    )
    (symbol "Switch:SW_Push" (pin_numbers hide) (pin_names (offset 1.016) hide) (in_bom yes) (on_board yes)
      (property "Reference" "SW" (id 0) (at 1.27 2.54 0)
        (effects (font (size 1.27 1.27)) (justify left))
      )
      (property "Value" "SW_Push" (id 1) (at 0 -1.524 0)
        (effects (font (size 1.27 1.27)))
      )
      (property "Footprint" "" (id 2) (at 0 5.08 0)
        (effects (font (size 1.27 1.27)) hide)
      )
      (property "Datasheet" "~" (id 3) (at 0 5.08 0)
        (effects (font (size 1.27 1.27)) hide)
      )
      (property "ki_keywords" "switch normally-open pushbutton push-button" (id 4) (at 0 0 0)
        (effects (font (size 1.27 1.27)) hide)
      )
      (property "ki_description" "Push button switch, generic, two pins" (id 5) (at 0 0 0)
        (effects (font (size 1.27 1.27)) hide)
      )
      (symbol "SW_Push_0_1"
        (circle (center -2.032 0) (radius 0.508)
          (stroke (width 0) (type default) (color 0 0 0 0))
          (fill (type none))
        )
        (polyline
          (pts
            (xy 0 1.27)
            (xy 0 3.048)
          )
          (stroke (width 0) (type default) (color 0 0 0 0))
          (fill (type none))
        )
        (polyline
          (pts
            (xy 2.54 1.27)
            (xy -2.54 1.27)
          )
          (stroke (width 0) (type default) (color 0 0 0 0))
          (fill (type none))
        )
        (circle (center 2.032 0) (radius 0.508)
          (stroke (width 0) (type default) (color 0 0 0 0))
          (fill (type none))
        )
        (pin passive line (at -5.08 0 0) (length 2.54)
          (name "1" (effects (font (size 1.27 1.27))))
          (number "1" (effects (font (size 1.27 1.27))))
        )
        (pin passive line (at 5.08 0 180) (length 2.54)
          (name "2" (effects (font (size 1.27 1.27))))
          (number "2" (effects (font (size 1.27 1.27))))
        )
      )
    )
    (symbol "Transistor_FET:IRF7343PBF" (pin_names hide) (in_bom yes) (on_board yes)
      (property "Reference" "Q" (id 0) (at 5.08 1.905 0)
        (effects (font (size 1.27 1.27)) (justify left))
      )
      (property "Value" "IRF7343PBF" (id 1) (at 5.08 0 0)
        (effects (font (size 1.27 1.27)) (justify left))
      )
      (property "Footprint" "Package_SO:SOIC-8_3.9x4.9mm_P1.27mm" (id 2) (at 5.08 -1.905 0)
        (effects (font (size 1.27 1.27)) (justify left) hide)
      )
      (property "Datasheet" "http://www.irf.com/product-info/datasheets/data/irf7343ipbf.pdf" (id 3) (at 2.54 0 0)
        (effects (font (size 1.27 1.27)) (justify left) hide)
      )
      (property "ki_keywords" "Dual HEXFET N-Channel P-Channel MOSFET" (id 4) (at 0 0 0)
        (effects (font (size 1.27 1.27)) hide)
      )
      (property "ki_description" "4A Id, 55V Vds, Dual HEXFET MOSFET, SO-8" (id 5) (at 0 0 0)
        (effects (font (size 1.27 1.27)) hide)
      )
      (property "ki_fp_filters" "SOIC*3.9x4.9mm*P1.27mm*" (id 6) (at 0 0 0)
        (effects (font (size 1.27 1.27)) hide)
      )
      (symbol "IRF7343PBF_0_1"
        (polyline
          (pts
            (xy 0.254 0)
            (xy -2.54 0)
          )
          (stroke (width 0) (type default) (color 0 0 0 0))
          (fill (type none))
        )
        (polyline
          (pts
            (xy 0.254 1.905)
            (xy 0.254 -1.905)
          )
          (stroke (width 0.254) (type default) (color 0 0 0 0))
          (fill (type none))
        )
        (polyline
          (pts
            (xy 0.762 -1.27)
            (xy 0.762 -2.286)
          )
          (stroke (width 0.254) (type default) (color 0 0 0 0))
          (fill (type none))
        )
        (polyline
          (pts
            (xy 0.762 0.508)
            (xy 0.762 -0.508)
          )
          (stroke (width 0.254) (type default) (color 0 0 0 0))
          (fill (type none))
        )
        (polyline
          (pts
            (xy 0.762 2.286)
            (xy 0.762 1.27)
          )
          (stroke (width 0.254) (type default) (color 0 0 0 0))
          (fill (type none))
        )
        (polyline
          (pts
            (xy 2.54 2.54)
            (xy 2.54 1.778)
          )
          (stroke (width 0) (type default) (color 0 0 0 0))
          (fill (type none))
        )
        (polyline
          (pts
            (xy 2.54 -2.54)
            (xy 2.54 0)
            (xy 0.762 0)
          )
          (stroke (width 0) (type default) (color 0 0 0 0))
          (fill (type none))
        )
        (polyline
          (pts
            (xy 0.762 -1.778)
            (xy 3.302 -1.778)
            (xy 3.302 1.778)
            (xy 0.762 1.778)
          )
          (stroke (width 0) (type default) (color 0 0 0 0))
          (fill (type none))
        )
        (circle (center 1.651 0) (radius 2.794)
          (stroke (width 0.254) (type default) (color 0 0 0 0))
          (fill (type none))
        )
        (circle (center 2.54 -1.778) (radius 0.254)
          (stroke (width 0) (type default) (color 0 0 0 0))
          (fill (type outline))
        )
        (circle (center 2.54 1.778) (radius 0.254)
          (stroke (width 0) (type default) (color 0 0 0 0))
          (fill (type outline))
        )
      )
      (symbol "IRF7343PBF_1_1"
        (polyline
          (pts
            (xy 1.016 0)
            (xy 2.032 0.381)
            (xy 2.032 -0.381)
            (xy 1.016 0)
          )
          (stroke (width 0) (type default) (color 0 0 0 0))
          (fill (type outline))
        )
        (polyline
          (pts
            (xy 2.794 0.508)
            (xy 2.921 0.381)
            (xy 3.683 0.381)
            (xy 3.81 0.254)
          )
          (stroke (width 0) (type default) (color 0 0 0 0))
          (fill (type none))
        )
        (polyline
          (pts
            (xy 3.302 0.381)
            (xy 2.921 -0.254)
            (xy 3.683 -0.254)
            (xy 3.302 0.381)
          )
          (stroke (width 0) (type default) (color 0 0 0 0))
          (fill (type none))
        )
        (pin passive line (at 2.54 -5.08 90) (length 2.54)
          (name "S" (effects (font (size 1.27 1.27))))
          (number "1" (effects (font (size 1.27 1.27))))
        )
        (pin input line (at -5.08 0 0) (length 2.54)
          (name "G" (effects (font (size 1.27 1.27))))
          (number "2" (effects (font (size 1.27 1.27))))
        )
        (pin passive line (at 2.54 5.08 270) (length 2.54) hide
          (name "D" (effects (font (size 1.27 1.27))))
          (number "7" (effects (font (size 1.27 1.27))))
        )
        (pin passive line (at 2.54 5.08 270) (length 2.54)
          (name "D" (effects (font (size 1.27 1.27))))
          (number "8" (effects (font (size 1.27 1.27))))
        )
      )
      (symbol "IRF7343PBF_2_1"
        (polyline
          (pts
            (xy 2.286 0)
            (xy 1.27 0.381)
            (xy 1.27 -0.381)
            (xy 2.286 0)
          )
          (stroke (width 0) (type default) (color 0 0 0 0))
          (fill (type outline))
        )
        (polyline
          (pts
            (xy 2.794 -0.508)
            (xy 2.921 -0.381)
            (xy 3.683 -0.381)
            (xy 3.81 -0.254)
          )
          (stroke (width 0) (type default) (color 0 0 0 0))
          (fill (type none))
        )
        (polyline
          (pts
            (xy 3.302 -0.381)
            (xy 2.921 0.254)
            (xy 3.683 0.254)
            (xy 3.302 -0.381)
          )
          (stroke (width 0) (type default) (color 0 0 0 0))
          (fill (type none))
        )
        (pin passive line (at 2.54 -5.08 90) (length 2.54)
          (name "1" (effects (font (size 1.27 1.27))))
          (number "3" (effects (font (size 1.27 1.27))))
        )
        (pin input line (at -5.08 0 0) (length 2.54)
          (name "G" (effects (font (size 1.27 1.27))))
          (number "4" (effects (font (size 1.27 1.27))))
        )
        (pin passive line (at 2.54 5.08 270) (length 2.54) hide
          (name "D" (effects (font (size 1.27 1.27))))
          (number "5" (effects (font (size 1.27 1.27))))
        )
        (pin passive line (at 2.54 5.08 270) (length 2.54)
          (name "D" (effects (font (size 1.27 1.27))))
          (number "6" (effects (font (size 1.27 1.27))))
        )
      )
    )
    (symbol "power:+5V" (power) (pin_names (offset 0)) (in_bom yes) (on_board yes)
      (property "Reference" "#PWR" (id 0) (at 0 -3.81 0)
        (effects (font (size 1.27 1.27)) hide)
      )
      (property "Value" "+5V" (id 1) (at 0 3.556 0)
        (effects (font (size 1.27 1.27)))
      )
      (property "Footprint" "" (id 2) (at 0 0 0)
        (effects (font (size 1.27 1.27)) hide)
      )
      (property "Datasheet" "" (id 3) (at 0 0 0)
        (effects (font (size 1.27 1.27)) hide)
      )
      (property "ki_keywords" "global power" (id 4) (at 0 0 0)
        (effects (font (size 1.27 1.27)) hide)
      )
      (property "ki_description" "Power symbol creates a global label with name \"+5V\"" (id 5) (at 0 0 0)
        (effects (font (size 1.27 1.27)) hide)
      )
      (symbol "+5V_0_1"
        (polyline
          (pts
            (xy -0.762 1.27)
            (xy 0 2.54)
          )
          (stroke (width 0) (type default) (color 0 0 0 0))
          (fill (type none))
        )
        (polyline
          (pts
            (xy 0 0)
            (xy 0 2.54)
          )
          (stroke (width 0) (type default) (color 0 0 0 0))
          (fill (type none))
        )
        (polyline
          (pts
            (xy 0 2.54)
            (xy 0.762 1.27)
          )
          (stroke (width 0) (type default) (color 0 0 0 0))
          (fill (type none))
        )
      )
      (symbol "+5V_1_1"
        (pin power_in line (at 0 0 90) (length 0) hide
          (name "+5V" (effects (font (size 1.27 1.27))))
          (number "1" (effects (font (size 1.27 1.27))))
        )
      )
    )
    (symbol "power:Earth" (power) (pin_names (offset 0)) (in_bom yes) (on_board yes)
      (property "Reference" "#PWR" (id 0) (at 0 -6.35 0)
        (effects (font (size 1.27 1.27)) hide)
      )
      (property "Value" "Earth" (id 1) (at 0 -3.81 0)
        (effects (font (size 1.27 1.27)) hide)
      )
      (property "Footprint" "" (id 2) (at 0 0 0)
        (effects (font (size 1.27 1.27)) hide)
      )
      (property "Datasheet" "~" (id 3) (at 0 0 0)
        (effects (font (size 1.27 1.27)) hide)
      )
      (property "ki_keywords" "power-flag ground gnd" (id 4) (at 0 0 0)
        (effects (font (size 1.27 1.27)) hide)
      )
      (property "ki_description" "Power symbol creates a global label with name \"Earth\"" (id 5) (at 0 0 0)
        (effects (font (size 1.27 1.27)) hide)
      )
      (symbol "Earth_0_1"
        (polyline
          (pts
            (xy -0.635 -1.905)
            (xy 0.635 -1.905)
          )
          (stroke (width 0) (type default) (color 0 0 0 0))
          (fill (type none))
        )
        (polyline
          (pts
            (xy -0.127 -2.54)
            (xy 0.127 -2.54)
          )
          (stroke (width 0) (type default) (color 0 0 0 0))
          (fill (type none))
        )
        (polyline
          (pts
            (xy 0 -1.27)
            (xy 0 0)
          )
          (stroke (width 0) (type default) (color 0 0 0 0))
          (fill (type none))
        )
        (polyline
          (pts
            (xy 1.27 -1.27)
            (xy -1.27 -1.27)
          )
          (stroke (width 0) (type default) (color 0 0 0 0))
          (fill (type none))
        )
      )
      (symbol "Earth_1_1"
        (pin power_in line (at 0 0 270) (length 0) hide
          (name "Earth" (effects (font (size 1.27 1.27))))
          (number "1" (effects (font (size 1.27 1.27))))
        )
      )
    )
    (symbol "power:GND" (power) (pin_names (offset 0)) (in_bom yes) (on_board yes)
      (property "Reference" "#PWR" (id 0) (at 0 -6.35 0)
        (effects (font (size 1.27 1.27)) hide)
      )
      (property "Value" "GND" (id 1) (at 0 -3.81 0)
        (effects (font (size 1.27 1.27)))
      )
      (property "Footprint" "" (id 2) (at 0 0 0)
        (effects (font (size 1.27 1.27)) hide)
      )
      (property "Datasheet" "" (id 3) (at 0 0 0)
        (effects (font (size 1.27 1.27)) hide)
      )
      (property "ki_keywords" "power-flag" (id 4) (at 0 0 0)
        (effects (font (size 1.27 1.27)) hide)
      )
      (property "ki_description" "Power symbol creates a global label with name \"GND\" , ground" (id 5) (at 0 0 0)
        (effects (font (size 1.27 1.27)) hide)
      )
      (symbol "GND_0_1"
        (polyline
          (pts
            (xy 0 0)
            (xy 0 -1.27)
            (xy 1.27 -1.27)
            (xy 0 -2.54)
            (xy -1.27 -1.27)
            (xy 0 -1.27)
          )
          (stroke (width 0) (type default) (color 0 0 0 0))
          (fill (type none))
        )
      )
      (symbol "GND_1_1"
        (pin power_in line (at 0 0 270) (length 0) hide
          (name "GND" (effects (font (size 1.27 1.27))))
          (number "1" (effects (font (size 1.27 1.27))))
        )
      )
    )
  )

  (junction (at 128.016 51.435) (diameter 0) (color 0 0 0 0)
    (uuid 16e8363f-b445-4367-a51d-ccfaf96d914d)
  )
  (junction (at 120.142 118.11) (diameter 0) (color 0 0 0 0)
    (uuid 18c81089-0b0e-44cb-90c6-8ea378bceb8b)
  )
  (junction (at 79.502 34.29) (diameter 0) (color 0 0 0 0)
    (uuid 1f13ca3f-a2e8-4b88-b380-f67369fc1d51)
  )
  (junction (at 115.824 71.628) (diameter 0) (color 0 0 0 0)
    (uuid 48ee6b64-1c83-4951-97cc-1bbbc1467800)
  )
  (junction (at 138.176 60.325) (diameter 0) (color 0 0 0 0)
    (uuid 49d4c872-df6c-4122-9484-b9b9d7cb07fa)
  )
  (junction (at 138.176 61.214) (diameter 0) (color 0 0 0 0)
    (uuid 52739e6c-f9f4-449a-84ac-9200d352c4be)
  )
  (junction (at 79.502 43.18) (diameter 0) (color 0 0 0 0)
    (uuid 54f7e978-88df-4ccf-9fec-8434699fc14a)
  )
  (junction (at 67.31 35.052) (diameter 0) (color 0 0 0 0)
    (uuid 68dd12aa-6bbf-4649-a465-88c508dc2960)
  )
  (junction (at 138.1252 60.2996) (diameter 0) (color 0 0 0 0)
    (uuid 83766c45-c881-45e2-92e9-fbce66584e19)
  )
  (junction (at 127 88.9) (diameter 0) (color 0 0 0 0)
    (uuid 87bbe4e3-2b27-40cb-afda-ffea6ab04ba3)
  )
  (junction (at 103.632 43.18) (diameter 0) (color 0 0 0 0)
    (uuid 91e4cc2f-d591-477d-aac9-5de18d899dc6)
  )
  (junction (at 67.31 29.972) (diameter 0) (color 0 0 0 0)
    (uuid a51c4d9a-ced1-45dc-a7a0-31d58b448365)
  )
  (junction (at 71.12 41.656) (diameter 0) (color 0 0 0 0)
    (uuid abd09091-7119-4b3b-87dc-9f8bba6c3b89)
  )
  (junction (at 138.176 43.815) (diameter 0) (color 0 0 0 0)
    (uuid ae285bae-e724-461f-82bf-4575b248381c)
  )
  (junction (at 141.732 130.556) (diameter 0) (color 0 0 0 0)
    (uuid b0a3e37b-cc30-4bfe-8bc5-f2cfb7d826d2)
  )
  (junction (at 79.502 41.656) (diameter 0) (color 0 0 0 0)
    (uuid cbb97268-c019-4dd4-a6fe-c2052a6c52ed)
  )
  (junction (at 138.176 60.2996) (diameter 0) (color 0 0 0 0)
    (uuid cfa9b788-3f49-48f2-a05f-e6bb7257bd23)
  )
  (junction (at 145.796 61.214) (diameter 0) (color 0 0 0 0)
    (uuid d2ba87b7-a601-44f3-bd55-5881c9c96a73)
  )
  (junction (at 125.984 78.232) (diameter 0) (color 0 0 0 0)
    (uuid d47257d9-6eab-4b96-b489-64343d42aa7f)
  )
  (junction (at 79.502 29.972) (diameter 0) (color 0 0 0 0)
    (uuid e92d9146-d5e5-4948-b5b6-84f0bbe42796)
  )
  (junction (at 128.016 34.29) (diameter 0) (color 0 0 0 0)
    (uuid f1eee895-4b8c-4d41-a00e-42ba3aad1fcc)
  )
  (junction (at 128.016 51.4604) (diameter 0) (color 0 0 0 0)
    (uuid fab4e2fb-6a12-4072-9852-21859095a5c1)
  )

  (wire (pts (xy 94.742 58.42) (xy 102.616 58.42))
    (stroke (width 0) (type default) (color 0 0 0 0))
    (uuid 048291d3-b0a2-490f-b480-3068c4a08243)
  )
  (wire (pts (xy 105.41 114.808) (xy 101.092 114.808))
    (stroke (width 0) (type default) (color 0 0 0 0))
    (uuid 0a72de2d-99f8-4f87-9507-402df08aa3c8)
  )
  (wire (pts (xy 134.112 133.35) (xy 120.142 133.35))
    (stroke (width 0) (type default) (color 0 0 0 0))
    (uuid 0db84ceb-c580-4498-9321-936cc4855595)
  )
  (wire (pts (xy 123.698 78.232) (xy 125.984 78.232))
    (stroke (width 0) (type default) (color 0 0 0 0))
    (uuid 11b0d417-3482-42b8-b9a0-84ddc1bbb958)
  )
  (wire (pts (xy 98.044 109.474) (xy 98.044 113.03))
    (stroke (width 0) (type default) (color 0 0 0 0))
    (uuid 15e71930-afe3-4581-a3ba-eb7f087c9c8c)
  )
  (wire (pts (xy 135.128 118.11) (xy 120.142 118.11))
    (stroke (width 0) (type default) (color 0 0 0 0))
    (uuid 1f638bdf-0460-406c-b75b-a2fd9f210f6d)
  )
  (wire (pts (xy 115.824 78.232) (xy 115.824 71.628))
    (stroke (width 0) (type default) (color 0 0 0 0))
    (uuid 2179c28d-8fff-4c3d-9809-a5bbd9be81c8)
  )
  (wire (pts (xy 116.078 141.224) (xy 123.698 141.224))
    (stroke (width 0) (type default) (color 0 0 0 0))
    (uuid 2677e3c1-4a92-4e89-9876-670168b4569a)
  )
  (wire (pts (xy 165.608 88.9) (xy 165.608 73.66))
    (stroke (width 0) (type default) (color 0 0 0 0))
    (uuid 291a38b2-39d6-4f6e-8f21-e469e0514bac)
  )
  (wire (pts (xy 145.796 61.214) (xy 138.176 61.214))
    (stroke (width 0) (type default) (color 0 0 0 0))
    (uuid 301ca679-63c4-4c5a-8d27-24026c721bde)
  )
  (wire (pts (xy 145.796 36.83) (xy 145.796 61.214))
    (stroke (width 0) (type default) (color 0 0 0 0))
    (uuid 32ec002f-60e4-46f8-aaab-58c70e5427f1)
  )
  (wire (pts (xy 102.616 58.42) (xy 102.616 91.694))
    (stroke (width 0) (type default) (color 0 0 0 0))
    (uuid 347a6517-838f-4325-87b1-3441cdc3c61e)
  )
  (wire (pts (xy 94.234 118.11) (xy 94.234 87.376))
    (stroke (width 0) (type default) (color 0 0 0 0))
    (uuid 35cfd062-41db-4e7d-96b5-68abf86cdbe4)
  )
  (wire (pts (xy 129.921 43.815) (xy 128.016 43.815))
    (stroke (width 0) (type default) (color 0 0 0 0))
    (uuid 387a367d-97c1-4712-9675-98ca00513e83)
  )
  (wire (pts (xy 102.616 91.694) (xy 127 91.694))
    (stroke (width 0) (type default) (color 0 0 0 0))
    (uuid 3ea6cffb-3c86-4444-b486-06d0324656fb)
  )
  (wire (pts (xy 143.256 34.29) (xy 145.796 34.29))
    (stroke (width 0) (type default) (color 0 0 0 0))
    (uuid 404be06e-1d80-41e6-ac2e-3f03f78c5cb4)
  )
  (wire (pts (xy 57.912 35.052) (xy 67.31 35.052))
    (stroke (width 0) (type default) (color 0 0 0 0))
    (uuid 463d2fb5-2924-4735-afe7-e79604699c8b)
  )
  (wire (pts (xy 134.112 130.556) (xy 141.732 130.556))
    (stroke (width 0) (type default) (color 0 0 0 0))
    (uuid 463f5709-d023-4291-ae4b-303a7e2c8298)
  )
  (wire (pts (xy 120.142 116.586) (xy 120.142 118.11))
    (stroke (width 0) (type default) (color 0 0 0 0))
    (uuid 4a215843-c9fe-4ef4-a2e4-9895cbe22fde)
  )
  (wire (pts (xy 94.234 87.376) (xy 100.076 87.376))
    (stroke (width 0) (type default) (color 0 0 0 0))
    (uuid 50edae54-5039-4c68-9eb8-0a5d414272db)
  )
  (wire (pts (xy 124.714 88.9) (xy 127 88.9))
    (stroke (width 0) (type default) (color 0 0 0 0))
    (uuid 515ffb96-ab81-42d6-98c0-76cc0398ca26)
  )
  (wire (pts (xy 138.1252 60.2996) (xy 138.176 60.2996))
    (stroke (width 0) (type default) (color 0 0 0 0))
    (uuid 53b71766-9024-46a0-ae01-f049c1c34076)
  )
  (wire (pts (xy 105.664 43.18) (xy 103.632 43.18))
    (stroke (width 0) (type default) (color 0 0 0 0))
    (uuid 5426f6df-9923-4edf-9fa9-25c240e7995e)
  )
  (wire (pts (xy 100.076 87.376) (xy 100.076 53.34))
    (stroke (width 0) (type default) (color 0 0 0 0))
    (uuid 54d42e46-ae25-492a-adce-701b304be5a0)
  )
  (wire (pts (xy 79.502 39.37) (xy 79.502 41.656))
    (stroke (width 0) (type default) (color 0 0 0 0))
    (uuid 55076499-f63b-4318-89e8-0e3d04b96fee)
  )
  (wire (pts (xy 105.664 48.26) (xy 105.664 43.18))
    (stroke (width 0) (type default) (color 0 0 0 0))
    (uuid 5541ac37-54bc-4cad-8e07-065a16325a31)
  )
  (wire (pts (xy 133.858 141.224) (xy 131.318 141.224))
    (stroke (width 0) (type default) (color 0 0 0 0))
    (uuid 56570802-e0f5-4053-bac4-5f5efdfc3211)
  )
  (wire (pts (xy 115.824 63.5) (xy 94.742 63.5))
    (stroke (width 0) (type default) (color 0 0 0 0))
    (uuid 5a3be490-7d0b-4f89-ba3a-81a3aa9db87f)
  )
  (wire (pts (xy 67.31 29.972) (xy 79.502 29.972))
    (stroke (width 0) (type default) (color 0 0 0 0))
    (uuid 5a71895b-3eed-4afc-87a4-45e26629df4b)
  )
  (wire (pts (xy 70.612 41.656) (xy 71.12 41.656))
    (stroke (width 0) (type default) (color 0 0 0 0))
    (uuid 5a882c95-b6ea-4544-86c0-bdd73708eea4)
  )
  (wire (pts (xy 62.992 29.972) (xy 67.31 29.972))
    (stroke (width 0) (type default) (color 0 0 0 0))
    (uuid 5af7ab2c-bc72-4ccb-8b27-2c0c3e210b1e)
  )
  (wire (pts (xy 135.128 120.396) (xy 135.128 118.11))
    (stroke (width 0) (type default) (color 0 0 0 0))
    (uuid 5eafd831-70f5-416c-ad55-bdbee499816e)
  )
  (wire (pts (xy 141.732 123.19) (xy 141.732 120.396))
    (stroke (width 0) (type default) (color 0 0 0 0))
    (uuid 5ec9f74c-9af7-49d9-a777-84bf8b6b65de)
  )
  (wire (pts (xy 138.1252 61.3664) (xy 138.1252 60.2996))
    (stroke (width 0) (type default) (color 0 0 0 0))
    (uuid 652a2f29-8a34-4ff3-bc69-87c064288ce8)
  )
  (wire (pts (xy 94.742 60.96) (xy 106.426 60.96))
    (stroke (width 0) (type default) (color 0 0 0 0))
    (uuid 65821352-83bb-4a5e-8229-16b928e78f9d)
  )
  (wire (pts (xy 128.016 51.4604) (xy 128.016 53.34))
    (stroke (width 0) (type default) (color 0 0 0 0))
    (uuid 68f06363-6ed1-4ceb-9805-71a61f565130)
  )
  (wire (pts (xy 141.732 128.27) (xy 141.732 130.556))
    (stroke (width 0) (type default) (color 0 0 0 0))
    (uuid 69903220-7018-44a0-8740-01ed08cb9b59)
  )
  (wire (pts (xy 138.176 43.815) (xy 138.176 41.91))
    (stroke (width 0) (type default) (color 0 0 0 0))
    (uuid 6acefa88-c697-48f4-b415-c311b6776410)
  )
  (wire (pts (xy 71.12 35.052) (xy 71.12 41.656))
    (stroke (width 0) (type default) (color 0 0 0 0))
    (uuid 6d53c749-d880-451a-bd47-746db1e33591)
  )
  (wire (pts (xy 135.001 43.815) (xy 138.176 43.815))
    (stroke (width 0) (type default) (color 0 0 0 0))
    (uuid 6e0948e2-8cd5-43fc-bfab-6e98774b0a3f)
  )
  (wire (pts (xy 79.502 41.656) (xy 79.502 43.18))
    (stroke (width 0) (type default) (color 0 0 0 0))
    (uuid 7032a943-4773-482c-8dcb-6ac11b7b9115)
  )
  (wire (pts (xy 101.092 55.88) (xy 101.092 114.808))
    (stroke (width 0) (type default) (color 0 0 0 0))
    (uuid 746c9ae6-796a-437f-a708-b0b215ece532)
  )
  (wire (pts (xy 127 88.9) (xy 165.608 88.9))
    (stroke (width 0) (type default) (color 0 0 0 0))
    (uuid 79ce248a-bf8c-4f77-bfee-b917cf192e18)
  )
  (wire (pts (xy 109.22 106.934) (xy 109.22 109.728))
    (stroke (width 0) (type default) (color 0 0 0 0))
    (uuid 7d290944-abbe-4e8d-a1b2-66a050d4bec7)
  )
  (wire (pts (xy 76.962 41.656) (xy 79.502 41.656))
    (stroke (width 0) (type default) (color 0 0 0 0))
    (uuid 7e551e00-92e9-48c7-b1c4-f9f81fe4df82)
  )
  (wire (pts (xy 118.11 49.53) (xy 118.11 60.96))
    (stroke (width 0) (type default) (color 0 0 0 0))
    (uuid 7f19bdb5-47a5-468e-8859-a42ba283b82a)
  )
  (wire (pts (xy 100.076 53.34) (xy 94.742 53.34))
    (stroke (width 0) (type default) (color 0 0 0 0))
    (uuid 7f9ac7ff-921f-4fb5-bd0f-60e7a12b7ece)
  )
  (wire (pts (xy 128.016 34.29) (xy 133.096 34.29))
    (stroke (width 0) (type default) (color 0 0 0 0))
    (uuid 801e01f8-5adb-493a-9acd-e8dc61d570fb)
  )
  (wire (pts (xy 128.016 58.42) (xy 128.016 60.325))
    (stroke (width 0) (type default) (color 0 0 0 0))
    (uuid 814a8d7b-9ae8-42fe-ad3d-963be1d284a0)
  )
  (wire (pts (xy 98.044 141.224) (xy 98.044 123.19))
    (stroke (width 0) (type default) (color 0 0 0 0))
    (uuid 816b764c-f339-4dee-bcfc-d2d7c4f52900)
  )
  (wire (pts (xy 103.632 88.9) (xy 103.632 43.18))
    (stroke (width 0) (type default) (color 0 0 0 0))
    (uuid 8315c917-34f8-4223-88ab-7e231a3d25b2)
  )
  (wire (pts (xy 105.664 53.34) (xy 105.664 54.61))
    (stroke (width 0) (type default) (color 0 0 0 0))
    (uuid 8d8536c8-4775-4262-be07-9762bc75ae32)
  )
  (wire (pts (xy 165.608 66.04) (xy 165.608 61.214))
    (stroke (width 0) (type default) (color 0 0 0 0))
    (uuid 8d88919b-fdf4-49a7-a39b-940c0e7e6da3)
  )
  (wire (pts (xy 128.016 34.29) (xy 128.016 43.815))
    (stroke (width 0) (type default) (color 0 0 0 0))
    (uuid 8de25b91-1721-4b77-8499-5e098f8e663d)
  )
  (wire (pts (xy 128.016 51.435) (xy 128.016 49.53))
    (stroke (width 0) (type default) (color 0 0 0 0))
    (uuid 90727e20-e87f-4950-ac98-96fbed1e6884)
  )
  (wire (pts (xy 128.016 51.4604) (xy 128.016 51.435))
    (stroke (width 0) (type default) (color 0 0 0 0))
    (uuid 972898c8-eeb1-4063-8775-a451be81ecfc)
  )
  (wire (pts (xy 128.016 49.53) (xy 118.11 49.53))
    (stroke (width 0) (type default) (color 0 0 0 0))
    (uuid 9a9a39a4-e547-4afa-8e1d-787bd098c89f)
  )
  (wire (pts (xy 115.824 71.628) (xy 115.824 63.5))
    (stroke (width 0) (type default) (color 0 0 0 0))
    (uuid a010ad3e-7fcb-4917-b919-a309faff0803)
  )
  (wire (pts (xy 111.506 60.96) (xy 118.11 60.96))
    (stroke (width 0) (type default) (color 0 0 0 0))
    (uuid a4a423b9-1948-45da-8334-b3300575faba)
  )
  (wire (pts (xy 71.12 41.656) (xy 71.882 41.656))
    (stroke (width 0) (type default) (color 0 0 0 0))
    (uuid a6f2efa5-d291-4d1c-9945-05e2d5ae5ea5)
  )
  (wire (pts (xy 79.502 73.66) (xy 79.502 75.184))
    (stroke (width 0) (type default) (color 0 0 0 0))
    (uuid a8f0fa0f-a3c4-43f0-9bcb-fcc1d0ecb60e)
  )
  (wire (pts (xy 125.984 78.232) (xy 125.984 71.628))
    (stroke (width 0) (type default) (color 0 0 0 0))
    (uuid aa13bd54-40dd-4e5d-8a64-f6839b543e92)
  )
  (wire (pts (xy 115.57 106.934) (xy 109.22 106.934))
    (stroke (width 0) (type default) (color 0 0 0 0))
    (uuid aa804322-337a-42b1-b008-e38e06e7f145)
  )
  (wire (pts (xy 165.608 61.214) (xy 145.796 61.214))
    (stroke (width 0) (type default) (color 0 0 0 0))
    (uuid aaaffe9e-27c0-4901-8351-dcdc22009141)
  )
  (wire (pts (xy 115.57 109.474) (xy 98.044 109.474))
    (stroke (width 0) (type default) (color 0 0 0 0))
    (uuid ad8294db-6194-4e34-856c-a14405c69b75)
  )
  (wire (pts (xy 119.634 88.9) (xy 103.632 88.9))
    (stroke (width 0) (type default) (color 0 0 0 0))
    (uuid adda86be-d581-40e8-9047-0fa578fe21a9)
  )
  (wire (pts (xy 118.618 78.232) (xy 115.824 78.232))
    (stroke (width 0) (type default) (color 0 0 0 0))
    (uuid b136c59c-f2f2-4180-b780-eaa21ad506ce)
  )
  (wire (pts (xy 141.732 120.396) (xy 135.128 120.396))
    (stroke (width 0) (type default) (color 0 0 0 0))
    (uuid b1626328-daf4-4cd2-bb30-f61f61c3f1f1)
  )
  (wire (pts (xy 79.502 34.29) (xy 128.016 34.29))
    (stroke (width 0) (type default) (color 0 0 0 0))
    (uuid b4086489-255a-4a38-9bf9-55d50dc1d123)
  )
  (wire (pts (xy 134.112 130.556) (xy 134.112 133.35))
    (stroke (width 0) (type default) (color 0 0 0 0))
    (uuid b87bd3ee-56d3-4bd1-8548-19956e9a9f7c)
  )
  (wire (pts (xy 110.998 141.224) (xy 98.044 141.224))
    (stroke (width 0) (type default) (color 0 0 0 0))
    (uuid bac96282-0665-4ca5-9ed9-aa8ea622de7a)
  )
  (wire (pts (xy 94.742 55.88) (xy 101.092 55.88))
    (stroke (width 0) (type default) (color 0 0 0 0))
    (uuid c2e47334-f150-4760-8772-7987c5d19d9e)
  )
  (wire (pts (xy 94.742 50.8) (xy 96.266 50.8))
    (stroke (width 0) (type default) (color 0 0 0 0))
    (uuid c3dc3c63-0e0c-4ff9-a8f8-1ea6b0ab0992)
  )
  (wire (pts (xy 112.522 125.73) (xy 109.22 125.73))
    (stroke (width 0) (type default) (color 0 0 0 0))
    (uuid cb1fb942-1716-4170-ae49-447c07f3853d)
  )
  (wire (pts (xy 79.502 29.972) (xy 79.502 34.29))
    (stroke (width 0) (type default) (color 0 0 0 0))
    (uuid cd34fd70-955f-447d-9961-e76441c15900)
  )
  (wire (pts (xy 127 91.694) (xy 127 88.9))
    (stroke (width 0) (type default) (color 0 0 0 0))
    (uuid d64df3df-f2ae-47e5-bf4c-c8a8b1747e68)
  )
  (wire (pts (xy 138.176 46.355) (xy 138.176 43.815))
    (stroke (width 0) (type default) (color 0 0 0 0))
    (uuid d6cbe683-e9a7-4edf-b543-d97b6ad28011)
  )
  (wire (pts (xy 128.016 51.435) (xy 130.556 51.435))
    (stroke (width 0) (type default) (color 0 0 0 0))
    (uuid da6c5cff-46c7-4d8f-84f3-9f027a12ddc8)
  )
  (wire (pts (xy 109.22 125.73) (xy 109.22 124.968))
    (stroke (width 0) (type default) (color 0 0 0 0))
    (uuid dcf1a490-2c62-4e4e-8142-c075c6ae30f0)
  )
  (wire (pts (xy 101.346 50.8) (xy 105.664 50.8))
    (stroke (width 0) (type default) (color 0 0 0 0))
    (uuid df34c66d-b690-4084-a8fa-862cec2636b5)
  )
  (wire (pts (xy 138.176 60.2996) (xy 138.176 56.515))
    (stroke (width 0) (type default) (color 0 0 0 0))
    (uuid e19b7dd5-113a-49c9-bad2-c68600a33850)
  )
  (wire (pts (xy 103.632 43.18) (xy 79.502 43.18))
    (stroke (width 0) (type default) (color 0 0 0 0))
    (uuid e65d4576-3b38-4523-a1a4-91492d98fd59)
  )
  (wire (pts (xy 67.31 35.052) (xy 71.12 35.052))
    (stroke (width 0) (type default) (color 0 0 0 0))
    (uuid e673a70d-cf30-48e2-8687-149a06bd2a9d)
  )
  (wire (pts (xy 138.176 60.325) (xy 138.176 60.2996))
    (stroke (width 0) (type default) (color 0 0 0 0))
    (uuid eca5fbb7-8210-45cf-a498-454cd507684e)
  )
  (wire (pts (xy 128.016 60.325) (xy 138.176 60.325))
    (stroke (width 0) (type default) (color 0 0 0 0))
    (uuid ff9f5547-8364-46b2-8faf-f0335319d2f2)
  )

  (symbol (lib_id "Device:R_Small") (at 108.966 60.96 90) (unit 1)
    (in_bom yes) (on_board yes)
    (uuid 0a9c91c3-eee2-4106-821a-522cfb5f908f)
    (property "Reference" "R?" (id 0) (at 108.966 56.5236 90))
    (property "Value" "1k" (id 1) (at 108.966 59.182 90))
    (property "Footprint" "" (id 2) (at 108.966 60.96 0)
      (effects (font (size 1.27 1.27)) hide)
    )
    (property "Datasheet" "~" (id 3) (at 108.966 60.96 0)
      (effects (font (size 1.27 1.27)) hide)
    )
    (pin "1" (uuid b5589518-2f0a-4dc4-b7bf-7e7423be4d9d))
    (pin "2" (uuid 966769ee-2be7-43fc-b1c5-2c4bc964a9a4))
  )

  (symbol (lib_id "Device:R_Small") (at 98.806 50.8 90) (unit 1)
    (in_bom yes) (on_board yes) (fields_autoplaced)
    (uuid 16d6ec3f-b412-4f00-aa9a-dadbc68e7df5)
    (property "Reference" "R?" (id 0) (at 98.806 46.3636 90))
    (property "Value" "4.7k" (id 1) (at 98.806 48.9005 90))
    (property "Footprint" "" (id 2) (at 98.806 50.8 0)
      (effects (font (size 1.27 1.27)) hide)
    )
    (property "Datasheet" "~" (id 3) (at 98.806 50.8 0)
      (effects (font (size 1.27 1.27)) hide)
    )
    (pin "1" (uuid aa497f7b-4c0c-4840-94f1-76f1e1ecb9e4))
    (pin "2" (uuid d69d1558-7483-4669-b7f6-2050ecaf67e7))
  )

  (symbol (lib_id "Device:Thermistor_NTC") (at 165.608 69.85 0) (unit 1)
    (in_bom yes) (on_board yes) (fields_autoplaced)
    (uuid 1de33f64-ba28-40f3-8dce-dc3fc90ac12a)
    (property "Reference" "TH?" (id 0) (at 168.021 69.3328 0)
      (effects (font (size 1.27 1.27)) (justify left))
    )
    (property "Value" "Thermistor_NTC" (id 1) (at 168.021 71.8697 0)
      (effects (font (size 1.27 1.27)) (justify left))
    )
    (property "Footprint" "" (id 2) (at 165.608 68.58 0)
      (effects (font (size 1.27 1.27)) hide)
    )
    (property "Datasheet" "~" (id 3) (at 165.608 68.58 0)
      (effects (font (size 1.27 1.27)) hide)
    )
    (pin "1" (uuid 6528640f-9547-4739-8fb8-ddec2b95dd5e))
    (pin "2" (uuid c4d1074f-a2be-4fac-a7df-554847ff3190))
  )

  (symbol (lib_id "Connector:Conn_Coaxial") (at 57.912 29.972 0) (mirror y) (unit 1)
    (in_bom yes) (on_board yes) (fields_autoplaced)
    (uuid 25eb1a48-9d54-4140-91e2-1b4fe3b263ee)
    (property "Reference" "J?" (id 0) (at 58.2294 24.4456 0))
    (property "Value" "POWER" (id 1) (at 58.2294 26.9825 0))
    (property "Footprint" "" (id 2) (at 57.912 29.972 0)
      (effects (font (size 1.27 1.27)) hide)
    )
    (property "Datasheet" " ~" (id 3) (at 57.912 29.972 0)
      (effects (font (size 1.27 1.27)) hide)
    )
    (pin "1" (uuid b3088682-a3fb-4f41-b811-27eec95aa4a7))
    (pin "2" (uuid de110f42-6bb1-4a17-8767-043a454f4d08))
  )

  (symbol (lib_id "Switch:SW_Push") (at 120.904 71.628 0) (unit 1)
    (in_bom yes) (on_board yes) (fields_autoplaced)
    (uuid 30f20aaa-4143-4d13-a2c2-b6fcf6c731de)
    (property "Reference" "SW?" (id 0) (at 120.904 65.0072 0))
    (property "Value" "BUTTON" (id 1) (at 120.904 67.5441 0))
    (property "Footprint" "" (id 2) (at 120.904 66.548 0)
      (effects (font (size 1.27 1.27)) hide)
    )
    (property "Datasheet" "~" (id 3) (at 120.904 66.548 0)
      (effects (font (size 1.27 1.27)) hide)
    )
    (pin "1" (uuid e6999932-2073-463b-b3e8-4d7d55b41b74))
    (pin "2" (uuid 82a19caa-f777-4bd4-aa5a-6f6a06bb1ced))
  )

  (symbol (lib_id "Transistor_FET:IRF7343PBF") (at 135.636 51.435 0) (unit 1)
    (in_bom yes) (on_board yes)
    (uuid 33e20a99-41d2-4172-acaa-6a2e9aea2c8a)
    (property "Reference" "Q?" (id 0) (at 140.8176 50.2666 0)
      (effects (font (size 1.27 1.27)) (justify left))
    )
    (property "Value" "IRF7343PBF" (id 1) (at 140.8176 52.578 0)
      (effects (font (size 1.27 1.27)) (justify left))
    )
    (property "Footprint" "Package_SO:SOIC-8_3.9x4.9mm_P1.27mm" (id 2) (at 140.716 53.34 0)
      (effects (font (size 1.27 1.27)) (justify left) hide)
    )
    (property "Datasheet" "http://www.irf.com/product-info/datasheets/data/irf7343ipbf.pdf" (id 3) (at 138.176 51.435 0)
      (effects (font (size 1.27 1.27)) (justify left) hide)
    )
    (pin "1" (uuid fc6a036b-5172-484c-bc5e-e559cce436f7))
    (pin "2" (uuid 2bd03c62-e0df-4c77-a706-f692667953ea))
    (pin "7" (uuid aa48030f-8b28-4c96-b1df-3e32dbcd3f35))
    (pin "8" (uuid 8cfc8110-9652-4202-9d85-b8afce892e1d))
    (pin "3" (uuid edca5715-c8ed-43f9-b59a-347c79a366c1))
    (pin "4" (uuid 6ac35266-a02f-45e7-bbf6-5b81f2b9d847))
    (pin "5" (uuid 5cada6f7-af67-4337-8f0e-1e9f5673ef60))
    (pin "6" (uuid 125b418b-2398-4d6d-a076-90e06a97f31e))
  )

  (symbol (lib_id "Device:R_Small") (at 128.016 55.88 0) (unit 1)
    (in_bom yes) (on_board yes)
    (uuid 34114e2b-d2e2-44fd-a5df-121ad9858c0c)
    (property "Reference" "R?" (id 0) (at 123.0376 55.88 90))
    (property "Value" "100k" (id 1) (at 125.349 55.88 90))
    (property "Footprint" "Resistor_SMD:R_0603_1608Metric_Pad0.98x0.95mm_HandSolder" (id 2) (at 128.016 55.88 0)
      (effects (font (size 1.27 1.27)) hide)
    )
    (property "Datasheet" "~" (id 3) (at 128.016 55.88 0)
      (effects (font (size 1.27 1.27)) hide)
    )
    (pin "1" (uuid 2648e3ab-362d-44be-bb49-ee6b8d255281))
    (pin "2" (uuid 1fdd65f9-cc93-41c6-893a-d26e6b944df7))
  )

  (symbol (lib_id "Device:C_Small") (at 74.422 41.656 90) (unit 1)
    (in_bom yes) (on_board yes) (fields_autoplaced)
    (uuid 411f7f43-bfcd-4e82-a45f-5cb121a00e81)
    (property "Reference" "C?" (id 0) (at 74.4283 36.3941 90))
    (property "Value" "0.1u" (id 1) (at 74.4283 38.931 90))
    (property "Footprint" "" (id 2) (at 74.422 41.656 0)
      (effects (font (size 1.27 1.27)) hide)
    )
    (property "Datasheet" "~" (id 3) (at 74.422 41.656 0)
      (effects (font (size 1.27 1.27)) hide)
    )
    (pin "1" (uuid cf4df0df-a4e1-4817-b2c7-1e3c528847fe))
    (pin "2" (uuid 7302071d-ce31-42aa-b822-93951f76319d))
  )

  (symbol (lib_id "Connector:Screw_Terminal_01x02") (at 150.876 34.29 0) (unit 1)
    (in_bom yes) (on_board yes) (fields_autoplaced)
    (uuid 429b8742-d169-4066-babc-7a33c267881d)
    (property "Reference" "J?" (id 0) (at 152.908 34.7253 0)
      (effects (font (size 1.27 1.27)) (justify left))
    )
    (property "Value" "Heater" (id 1) (at 152.908 37.2622 0)
      (effects (font (size 1.27 1.27)) (justify left))
    )
    (property "Footprint" "" (id 2) (at 150.876 34.29 0)
      (effects (font (size 1.27 1.27)) hide)
    )
    (property "Datasheet" "~" (id 3) (at 150.876 34.29 0)
      (effects (font (size 1.27 1.27)) hide)
    )
    (pin "1" (uuid 73e70242-24a3-43cf-bfe2-7fa2a5eed736))
    (pin "2" (uuid 961b01ca-314b-4447-96f8-756377696351))
  )

  (symbol (lib_id "power:GND") (at 125.984 78.232 0) (unit 1)
    (in_bom yes) (on_board yes)
    (uuid 4e17e97a-894f-45e4-8cb4-494d549d5ab4)
    (property "Reference" "#PWR?" (id 0) (at 125.984 84.582 0)
      (effects (font (size 1.27 1.27)) hide)
    )
    (property "Value" "GND" (id 1) (at 126.111 82.6262 0))
    (property "Footprint" "" (id 2) (at 125.984 78.232 0)
      (effects (font (size 1.27 1.27)) hide)
    )
    (property "Datasheet" "" (id 3) (at 125.984 78.232 0)
      (effects (font (size 1.27 1.27)) hide)
    )
    (pin "1" (uuid eb241659-20a9-4467-a92b-a8cebed40ddf))
  )

  (symbol (lib_id "Device:C_Small") (at 141.732 125.73 0) (mirror y) (unit 1)
    (in_bom yes) (on_board yes) (fields_autoplaced)
    (uuid 51e7f8a5-b372-4c7a-be8b-def53b0db902)
    (property "Reference" "C?" (id 0) (at 136.4701 125.7363 90))
    (property "Value" "0.1u" (id 1) (at 139.007 125.7363 90))
    (property "Footprint" "" (id 2) (at 141.732 125.73 0)
      (effects (font (size 1.27 1.27)) hide)
    )
    (property "Datasheet" "~" (id 3) (at 141.732 125.73 0)
      (effects (font (size 1.27 1.27)) hide)
    )
    (pin "1" (uuid 4dc3ea68-35b6-483b-9c61-e0a7b70dfd7e))
    (pin "2" (uuid beb63f65-be00-4fa9-aa7a-af9bd8838e08))
  )

  (symbol (lib_id "Device:L_Small") (at 79.502 36.83 0) (unit 1)
    (in_bom yes) (on_board yes) (fields_autoplaced)
    (uuid 5a2373a3-e379-4f85-995e-2d0b731e0f88)
    (property "Reference" "L?" (id 0) (at 80.645 35.9953 0)
      (effects (font (size 1.27 1.27)) (justify left))
    )
    (property "Value" "100u" (id 1) (at 80.645 38.5322 0)
      (effects (font (size 1.27 1.27)) (justify left))
    )
    (property "Footprint" "" (id 2) (at 79.502 36.83 0)
      (effects (font (size 1.27 1.27)) hide)
    )
    (property "Datasheet" "~" (id 3) (at 79.502 36.83 0)
      (effects (font (size 1.27 1.27)) hide)
    )
    (pin "1" (uuid 7f1605de-da25-479a-9885-f59713d4ae14))
    (pin "2" (uuid 8b95e676-8e2a-4ad6-839a-6e6265ae6e9a))
  )

  (symbol (lib_id "Device:R_Small") (at 109.22 122.428 180) (unit 1)
    (in_bom yes) (on_board yes)
    (uuid 5c4dd4d1-be82-443f-9d1a-b5b4602aef35)
    (property "Reference" "R?" (id 0) (at 104.7836 122.428 90))
    (property "Value" "1k" (id 1) (at 107.442 122.428 90))
    (property "Footprint" "" (id 2) (at 109.22 122.428 0)
      (effects (font (size 1.27 1.27)) hide)
    )
    (property "Datasheet" "~" (id 3) (at 109.22 122.428 0)
      (effects (font (size 1.27 1.27)) hide)
    )
    (pin "1" (uuid 4965be15-dc85-480d-ac7c-d2212c4cffd4))
    (pin "2" (uuid 955ba866-dae6-467f-bebe-6a3f8961be1c))
  )

  (symbol (lib_id "power:GND") (at 138.1252 61.3664 0) (unit 1)
    (in_bom yes) (on_board yes)
    (uuid 60eb0d74-8a25-4702-8b98-d728cedf9eb2)
    (property "Reference" "#PWR?" (id 0) (at 138.1252 67.7164 0)
      (effects (font (size 1.27 1.27)) hide)
    )
    (property "Value" "GND" (id 1) (at 138.2522 65.7606 0))
    (property "Footprint" "" (id 2) (at 138.1252 61.3664 0)
      (effects (font (size 1.27 1.27)) hide)
    )
    (property "Datasheet" "" (id 3) (at 138.1252 61.3664 0)
      (effects (font (size 1.27 1.27)) hide)
    )
    (pin "1" (uuid 6efd230b-3d21-4097-9cbc-3b8b7c08e041))
  )

  (symbol (lib_id "Connector_Generic:Conn_01x04") (at 120.65 104.394 0) (unit 1)
    (in_bom yes) (on_board yes) (fields_autoplaced)
    (uuid 6c26651d-8699-47aa-a0cc-659632ed5ea7)
    (property "Reference" "J?" (id 0) (at 122.682 104.8293 0)
      (effects (font (size 1.27 1.27)) (justify left))
    )
    (property "Value" "Display" (id 1) (at 122.682 107.3662 0)
      (effects (font (size 1.27 1.27)) (justify left))
    )
    (property "Footprint" "" (id 2) (at 120.65 104.394 0)
      (effects (font (size 1.27 1.27)) hide)
    )
    (property "Datasheet" "~" (id 3) (at 120.65 104.394 0)
      (effects (font (size 1.27 1.27)) hide)
    )
    (pin "1" (uuid aa6855dd-6add-405c-8dd7-bbe77eee97d0))
    (pin "2" (uuid 05de1272-a86b-4e71-9519-961062cf7d47))
    (pin "3" (uuid e0f8336d-6908-4ca8-a539-ea83815576b7))
    (pin "4" (uuid e3317db8-2266-4eb8-8703-c9ddb7ccedc7))
  )

  (symbol (lib_id "LED:WS2812B") (at 120.142 125.73 0) (unit 1)
    (in_bom yes) (on_board yes) (fields_autoplaced)
    (uuid 6da3a243-6fc4-4fad-b38b-8335dc425d09)
    (property "Reference" "D?" (id 0) (at 130.4479 122.2716 0))
    (property "Value" "WS2812B" (id 1) (at 130.4479 124.8085 0))
    (property "Footprint" "LED_SMD:LED_WS2812B_PLCC4_5.0x5.0mm_P3.2mm" (id 2) (at 121.412 133.35 0)
      (effects (font (size 1.27 1.27)) (justify left top) hide)
    )
    (property "Datasheet" "https://cdn-shop.adafruit.com/datasheets/WS2812B.pdf" (id 3) (at 122.682 135.255 0)
      (effects (font (size 1.27 1.27)) (justify left top) hide)
    )
    (pin "1" (uuid dad47db9-419b-467d-9d1e-13c2db797a2c))
    (pin "2" (uuid 6e28e1b9-f8dc-4fcb-8a2a-25b9b3b2f15a))
    (pin "3" (uuid 62cd57f0-0ebf-4ddd-8855-67f74bbec3f3))
    (pin "4" (uuid a9006398-32cb-4fd6-8535-e02666418cc8))
  )

  (symbol (lib_id "power:+5V") (at 115.57 104.394 90) (unit 1)
    (in_bom yes) (on_board yes) (fields_autoplaced)
    (uuid 730f5461-195e-4c23-9bb9-f15c3bbc8197)
    (property "Reference" "#PWR?" (id 0) (at 119.38 104.394 0)
      (effects (font (size 1.27 1.27)) hide)
    )
    (property "Value" "+5V" (id 1) (at 112.3951 104.8278 90)
      (effects (font (size 1.27 1.27)) (justify left))
    )
    (property "Footprint" "" (id 2) (at 115.57 104.394 0)
      (effects (font (size 1.27 1.27)) hide)
    )
    (property "Datasheet" "" (id 3) (at 115.57 104.394 0)
      (effects (font (size 1.27 1.27)) hide)
    )
    (pin "1" (uuid 9066ca5b-8fc8-40ea-8790-7d93689789ad))
  )

  (symbol (lib_id "power:Earth") (at 133.858 141.224 90) (unit 1)
    (in_bom yes) (on_board yes)
    (uuid 7b074031-b895-4368-b3b3-70484d365fcd)
    (property "Reference" "#PWR?" (id 0) (at 140.208 141.224 0)
      (effects (font (size 1.27 1.27)) hide)
    )
    (property "Value" "Earth" (id 1) (at 137.668 141.224 0)
      (effects (font (size 1.27 1.27)) hide)
    )
    (property "Footprint" "" (id 2) (at 133.858 141.224 0)
      (effects (font (size 1.27 1.27)) hide)
    )
    (property "Datasheet" "~" (id 3) (at 133.858 141.224 0)
      (effects (font (size 1.27 1.27)) hide)
    )
    (pin "1" (uuid f9ed0100-ca76-4353-b542-9c853fdca8e7))
  )

  (symbol (lib_id "power:GND") (at 105.664 54.61 0) (unit 1)
    (in_bom yes) (on_board yes)
    (uuid 7d274e15-b973-4efd-b5a4-f234824bae67)
    (property "Reference" "#PWR?" (id 0) (at 105.664 60.96 0)
      (effects (font (size 1.27 1.27)) hide)
    )
    (property "Value" "GND" (id 1) (at 105.791 59.0042 0))
    (property "Footprint" "" (id 2) (at 105.664 54.61 0)
      (effects (font (size 1.27 1.27)) hide)
    )
    (property "Datasheet" "" (id 3) (at 105.664 54.61 0)
      (effects (font (size 1.27 1.27)) hide)
    )
    (pin "1" (uuid 4d811078-27c4-41e1-a715-ae29e75eb22c))
  )

  (symbol (lib_id "power:GND") (at 141.732 130.556 90) (mirror x) (unit 1)
    (in_bom yes) (on_board yes)
    (uuid 85f37fa2-721d-490e-996e-0f297446d4ba)
    (property "Reference" "#PWR?" (id 0) (at 148.082 130.556 0)
      (effects (font (size 1.27 1.27)) hide)
    )
    (property "Value" "GND" (id 1) (at 146.1262 130.683 0))
    (property "Footprint" "" (id 2) (at 141.732 130.556 0)
      (effects (font (size 1.27 1.27)) hide)
    )
    (property "Datasheet" "" (id 3) (at 141.732 130.556 0)
      (effects (font (size 1.27 1.27)) hide)
    )
    (pin "1" (uuid 8cb25802-aee1-4a84-9e05-a879a22799f7))
  )

  (symbol (lib_id "Device:C_Small") (at 67.31 32.512 180) (unit 1)
    (in_bom yes) (on_board yes) (fields_autoplaced)
    (uuid 9739358f-346f-43e5-aa1c-048269e8aaba)
    (property "Reference" "C?" (id 0) (at 69.6341 31.6709 0)
      (effects (font (size 1.27 1.27)) (justify right))
    )
    (property "Value" "10u" (id 1) (at 69.6341 34.2078 0)
      (effects (font (size 1.27 1.27)) (justify right))
    )
    (property "Footprint" "" (id 2) (at 67.31 32.512 0)
      (effects (font (size 1.27 1.27)) hide)
    )
    (property "Datasheet" "~" (id 3) (at 67.31 32.512 0)
      (effects (font (size 1.27 1.27)) hide)
    )
    (pin "1" (uuid 94ebd520-26dc-46e0-be6e-fa7f5be10be7))
    (pin "2" (uuid 8e50fe78-f1c9-462b-a8e1-8aa5f8be09b1))
  )

  (symbol (lib_id "Device:R_Small") (at 122.174 88.9 90) (unit 1)
    (in_bom yes) (on_board yes) (fields_autoplaced)
    (uuid ac8c5cc1-0235-4973-8fc9-1169a844eb32)
    (property "Reference" "R?" (id 0) (at 122.174 84.4636 90))
    (property "Value" "10k" (id 1) (at 122.174 87.0005 90))
    (property "Footprint" "" (id 2) (at 122.174 88.9 0)
      (effects (font (size 1.27 1.27)) hide)
    )
    (property "Datasheet" "~" (id 3) (at 122.174 88.9 0)
      (effects (font (size 1.27 1.27)) hide)
    )
    (pin "1" (uuid 3743dd3d-8283-4fec-a2cb-e306b1f63fb1))
    (pin "2" (uuid c2471ae9-706e-44e1-874f-a28c2df28ecf))
  )

  (symbol (lib_id "power:+5V") (at 120.142 116.586 0) (unit 1)
    (in_bom yes) (on_board yes) (fields_autoplaced)
    (uuid b01a50bf-cf8e-4c33-8e4f-1b81e88466dc)
    (property "Reference" "#PWR?" (id 0) (at 120.142 120.396 0)
      (effects (font (size 1.27 1.27)) hide)
    )
    (property "Value" "+5V" (id 1) (at 120.142 113.0102 0))
    (property "Footprint" "" (id 2) (at 120.142 116.586 0)
      (effects (font (size 1.27 1.27)) hide)
    )
    (property "Datasheet" "" (id 3) (at 120.142 116.586 0)
      (effects (font (size 1.27 1.27)) hide)
    )
    (pin "1" (uuid b71d74f5-22e8-4dd4-a95f-a907f3792447))
  )

  (symbol (lib_id "power:GND") (at 115.57 101.854 180) (unit 1)
    (in_bom yes) (on_board yes)
    (uuid c35c8c72-3174-4cb6-b536-5e1f9805dfc0)
    (property "Reference" "#PWR?" (id 0) (at 115.57 95.504 0)
      (effects (font (size 1.27 1.27)) hide)
    )
    (property "Value" "GND" (id 1) (at 115.443 97.4598 0))
    (property "Footprint" "" (id 2) (at 115.57 101.854 0)
      (effects (font (size 1.27 1.27)) hide)
    )
    (property "Datasheet" "" (id 3) (at 115.57 101.854 0)
      (effects (font (size 1.27 1.27)) hide)
    )
    (pin "1" (uuid db96d2f3-97be-4e9b-b700-c45cdbb6a5ff))
  )

  (symbol (lib_id "Device:LED") (at 127.508 141.224 0) (mirror y) (unit 1)
    (in_bom yes) (on_board yes)
    (uuid c449c001-a9d0-42af-bc74-7bec78ba9e79)
    (property "Reference" "D?" (id 0) (at 127.7112 135.7376 0))
    (property "Value" "LED" (id 1) (at 127.7112 138.049 0))
    (property "Footprint" "LED_THT:LED_D5.0mm" (id 2) (at 127.508 141.224 0)
      (effects (font (size 1.27 1.27)) hide)
    )
    (property "Datasheet" "~" (id 3) (at 127.508 141.224 0)
      (effects (font (size 1.27 1.27)) hide)
    )
    (pin "1" (uuid 1ef70648-536f-4519-a730-432250093188))
    (pin "2" (uuid 35e79cab-9917-4a5a-84d8-767388af60f4))
  )

  (symbol (lib_id "MCU_Microchip_ATtiny:ATtiny402-SS") (at 79.502 58.42 0) (unit 1)
    (in_bom yes) (on_board yes) (fields_autoplaced)
    (uuid c5da138c-b53d-4e38-b4e2-2c9101d2b2ab)
    (property "Reference" "U?" (id 0) (at 66.0401 57.5853 0)
      (effects (font (size 1.27 1.27)) (justify right))
    )
    (property "Value" "ATtiny402-SS" (id 1) (at 66.0401 60.1222 0)
      (effects (font (size 1.27 1.27)) (justify right))
    )
    (property "Footprint" "Package_SO:SOIC-8_3.9x4.9mm_P1.27mm" (id 2) (at 79.502 58.42 0)
      (effects (font (size 1.27 1.27) italic) hide)
    )
    (property "Datasheet" "http://ww1.microchip.com/downloads/en/DeviceDoc/ATtiny202-402-AVR-MCU-with-Core-Independent-Peripherals_and-picoPower-40001969A.pdf" (id 3) (at 79.502 58.42 0)
      (effects (font (size 1.27 1.27)) hide)
    )
    (pin "1" (uuid 019f7242-7760-4a23-ac23-e92d507da95a))
    (pin "2" (uuid f4af7b40-9e83-4625-ba9a-fca0325d19ae))
    (pin "3" (uuid da3b964a-3dfd-469d-ac5b-5363a06e4639))
    (pin "4" (uuid 5afa10c0-c732-4e55-ac97-36e3c754d152))
    (pin "5" (uuid 46f56770-d657-4c1c-ba7a-85e9b48a245d))
    (pin "6" (uuid 7111e56d-ed12-48cf-a7d0-01212df64290))
    (pin "7" (uuid ecc3a807-83df-4caa-8ee4-bee4abca8246))
    (pin "8" (uuid f76e5271-ee28-469b-9b42-e149b481d91b))
  )

  (symbol (lib_id "Device:R_Small") (at 113.538 141.224 90) (unit 1)
    (in_bom yes) (on_board yes)
    (uuid c9cc7c3d-79c0-4a2b-8af5-d461c87a1c16)
    (property "Reference" "R?" (id 0) (at 113.538 136.2456 90))
    (property "Value" "1k" (id 1) (at 113.538 138.557 90))
    (property "Footprint" "Resistor_SMD:R_0805_2012Metric_Pad1.20x1.40mm_HandSolder" (id 2) (at 113.538 141.224 0)
      (effects (font (size 1.27 1.27)) hide)
    )
    (property "Datasheet" "~" (id 3) (at 113.538 141.224 0)
      (effects (font (size 1.27 1.27)) hide)
    )
    (pin "1" (uuid 5e39d8a5-904a-4ed1-9a58-0573319c92d6))
    (pin "2" (uuid 14a27e1d-8d0c-445f-89f9-5ad7c80e93a7))
  )

  (symbol (lib_id "Transistor_FET:IRF7343PBF") (at 138.176 36.83 270) (mirror x) (unit 2)
    (in_bom yes) (on_board yes)
    (uuid d3e5342c-a56e-43c2-9dfb-5c253e737cb5)
    (property "Reference" "Q?" (id 0) (at 139.3444 31.6484 0)
      (effects (font (size 1.27 1.27)) (justify left))
    )
    (property "Value" "IRF7343PBF" (id 1) (at 137.033 31.6484 0)
      (effects (font (size 1.27 1.27)) (justify left))
    )
    (property "Footprint" "Package_SO:SOIC-8_3.9x4.9mm_P1.27mm" (id 2) (at 136.271 31.75 0)
      (effects (font (size 1.27 1.27)) (justify left) hide)
    )
    (property "Datasheet" "http://www.irf.com/product-info/datasheets/data/irf7343ipbf.pdf" (id 3) (at 138.176 34.29 0)
      (effects (font (size 1.27 1.27)) (justify left) hide)
    )
    (pin "1" (uuid fd558220-4e28-47ed-b144-9dd291ab5508))
    (pin "2" (uuid a8ca7044-66fa-4d4e-b110-b925d0e6fce6))
    (pin "7" (uuid 960b5cf3-4b46-4f5e-8dc1-2dc5db443db0))
    (pin "8" (uuid 2363ffee-9ba4-404c-8dcd-7721dfae1f99))
    (pin "3" (uuid 8f0b9b98-d24d-41b7-99e2-604c7b9cdb0a))
    (pin "4" (uuid 31d22ef3-15a1-46a5-81d7-34c9fd1f3851))
    (pin "5" (uuid ede03860-8893-416e-8cd6-a95cce82631c))
    (pin "6" (uuid 514ba68d-41ba-4094-99dc-39c46f446b68))
  )

  (symbol (lib_id "Jumper:SolderJumper_3_Bridged12") (at 98.044 118.11 270) (unit 1)
    (in_bom yes) (on_board yes) (fields_autoplaced)
    (uuid d7e2a440-61b5-45b6-9426-9cac74a69f2e)
    (property "Reference" "JP?" (id 0) (at 99.695 117.2753 90)
      (effects (font (size 1.27 1.27)) (justify left))
    )
    (property "Value" "SDA" (id 1) (at 99.695 119.8122 90)
      (effects (font (size 1.27 1.27)) (justify left))
    )
    (property "Footprint" "" (id 2) (at 98.044 118.11 0)
      (effects (font (size 1.27 1.27)) hide)
    )
    (property "Datasheet" "~" (id 3) (at 98.044 118.11 0)
      (effects (font (size 1.27 1.27)) hide)
    )
    (pin "1" (uuid bac15941-c580-4e3a-acec-10e18eb3d472))
    (pin "2" (uuid e9b3b6b3-e167-4b3d-b0e7-ec86f28a735e))
    (pin "3" (uuid 7a99c764-25c0-49f0-b32f-4ecc68114faf))
  )

  (symbol (lib_id "Device:R_Small") (at 132.461 43.815 90) (mirror x) (unit 1)
    (in_bom yes) (on_board yes)
    (uuid da50fbb8-3b0a-47bd-a030-0128d46d3761)
    (property "Reference" "R?" (id 0) (at 132.461 38.8366 90))
    (property "Value" "100k" (id 1) (at 132.461 41.148 90))
    (property "Footprint" "Resistor_SMD:R_0603_1608Metric_Pad0.98x0.95mm_HandSolder" (id 2) (at 132.461 43.815 0)
      (effects (font (size 1.27 1.27)) hide)
    )
    (property "Datasheet" "~" (id 3) (at 132.461 43.815 0)
      (effects (font (size 1.27 1.27)) hide)
    )
    (pin "1" (uuid 6951a460-7e36-46aa-a7e7-65b7770d615d))
    (pin "2" (uuid 4d09a65f-7e1b-43f8-bd94-6558f2756b8b))
  )

  (symbol (lib_id "power:GND") (at 70.612 41.656 270) (unit 1)
    (in_bom yes) (on_board yes)
    (uuid dfa25f08-b118-4968-8046-231e4beeba4c)
    (property "Reference" "#PWR?" (id 0) (at 64.262 41.656 0)
      (effects (font (size 1.27 1.27)) hide)
    )
    (property "Value" "GND" (id 1) (at 66.2178 41.783 0))
    (property "Footprint" "" (id 2) (at 70.612 41.656 0)
      (effects (font (size 1.27 1.27)) hide)
    )
    (property "Datasheet" "" (id 3) (at 70.612 41.656 0)
      (effects (font (size 1.27 1.27)) hide)
    )
    (pin "1" (uuid d0d82056-2cb1-4aca-9ba5-86a88bc669e5))
  )

  (symbol (lib_id "power:+5V") (at 79.502 29.972 0) (unit 1)
    (in_bom yes) (on_board yes) (fields_autoplaced)
    (uuid e4e7c861-1c88-4ebc-bfd2-6c5372111f4a)
    (property "Reference" "#PWR?" (id 0) (at 79.502 33.782 0)
      (effects (font (size 1.27 1.27)) hide)
    )
    (property "Value" "+5V" (id 1) (at 79.502 26.3962 0))
    (property "Footprint" "" (id 2) (at 79.502 29.972 0)
      (effects (font (size 1.27 1.27)) hide)
    )
    (property "Datasheet" "" (id 3) (at 79.502 29.972 0)
      (effects (font (size 1.27 1.27)) hide)
    )
    (pin "1" (uuid b7cd3cfd-2a1d-4512-9dc1-49df9584e442))
  )

  (symbol (lib_id "Jumper:SolderJumper_3_Bridged12") (at 109.22 114.808 270) (unit 1)
    (in_bom yes) (on_board yes) (fields_autoplaced)
    (uuid f12e7877-739d-40d9-8da5-30034b5274b1)
    (property "Reference" "JP?" (id 0) (at 110.871 113.9733 90)
      (effects (font (size 1.27 1.27)) (justify left))
    )
    (property "Value" "SCL" (id 1) (at 110.871 116.5102 90)
      (effects (font (size 1.27 1.27)) (justify left))
    )
    (property "Footprint" "" (id 2) (at 109.22 114.808 0)
      (effects (font (size 1.27 1.27)) hide)
    )
    (property "Datasheet" "~" (id 3) (at 109.22 114.808 0)
      (effects (font (size 1.27 1.27)) hide)
    )
    (pin "1" (uuid ba7be07d-c56e-476c-9718-b9c68d6ce4b7))
    (pin "2" (uuid 287f538f-879b-4114-8ae9-14f9a506aa18))
    (pin "3" (uuid 107eb582-6fb2-46ec-978d-50854d07d339))
  )

  (symbol (lib_id "power:GND") (at 79.502 75.184 0) (unit 1)
    (in_bom yes) (on_board yes)
    (uuid f130969b-2cc7-43fa-a169-4905b9d6ac22)
    (property "Reference" "#PWR?" (id 0) (at 79.502 81.534 0)
      (effects (font (size 1.27 1.27)) hide)
    )
    (property "Value" "GND" (id 1) (at 79.629 79.5782 0))
    (property "Footprint" "" (id 2) (at 79.502 75.184 0)
      (effects (font (size 1.27 1.27)) hide)
    )
    (property "Datasheet" "" (id 3) (at 79.502 75.184 0)
      (effects (font (size 1.27 1.27)) hide)
    )
    (pin "1" (uuid 08031735-101f-41c3-97f6-40175135ad5e))
  )

  (symbol (lib_id "Connector_Generic:Conn_01x03") (at 110.744 50.8 0) (unit 1)
    (in_bom yes) (on_board yes) (fields_autoplaced)
    (uuid f4f1a15e-5f9a-4ee9-9f7d-3632783ed034)
    (property "Reference" "J?" (id 0) (at 112.776 49.9653 0)
      (effects (font (size 1.27 1.27)) (justify left))
    )
    (property "Value" "Conn_01x03" (id 1) (at 112.776 52.5022 0)
      (effects (font (size 1.27 1.27)) (justify left))
    )
    (property "Footprint" "" (id 2) (at 110.744 50.8 0)
      (effects (font (size 1.27 1.27)) hide)
    )
    (property "Datasheet" "~" (id 3) (at 110.744 50.8 0)
      (effects (font (size 1.27 1.27)) hide)
    )
    (pin "1" (uuid ebc818bc-fc14-4fd0-b208-0b4cbbcc6f5b))
    (pin "2" (uuid 228c5c8d-dd90-482d-b185-9c8870cd1666))
    (pin "3" (uuid 459ed6e4-69a5-448b-83cb-0894a74dfb54))
  )

  (symbol (lib_id "Device:C_Small") (at 121.158 78.232 90) (unit 1)
    (in_bom yes) (on_board yes) (fields_autoplaced)
    (uuid f884b278-2c41-4e98-a126-3ed30c0b33d8)
    (property "Reference" "C?" (id 0) (at 121.1643 72.9701 90))
    (property "Value" "0.1u" (id 1) (at 121.1643 75.507 90))
    (property "Footprint" "" (id 2) (at 121.158 78.232 0)
      (effects (font (size 1.27 1.27)) hide)
    )
    (property "Datasheet" "~" (id 3) (at 121.158 78.232 0)
      (effects (font (size 1.27 1.27)) hide)
    )
    (pin "1" (uuid 3ed857ee-9c41-460b-a395-bef1f2657614))
    (pin "2" (uuid 3b78d2c4-307f-4b11-b475-1d55294d32a4))
  )

  (sheet_instances
    (path "/" (page "1"))
  )

  (symbol_instances
    (path "/4e17e97a-894f-45e4-8cb4-494d549d5ab4"
      (reference "#PWR?") (unit 1) (value "GND") (footprint "")
    )
    (path "/60eb0d74-8a25-4702-8b98-d728cedf9eb2"
      (reference "#PWR?") (unit 1) (value "GND") (footprint "")
    )
    (path "/730f5461-195e-4c23-9bb9-f15c3bbc8197"
      (reference "#PWR?") (unit 1) (value "+5V") (footprint "")
    )
    (path "/7b074031-b895-4368-b3b3-70484d365fcd"
      (reference "#PWR?") (unit 1) (value "Earth") (footprint "")
    )
    (path "/7d274e15-b973-4efd-b5a4-f234824bae67"
      (reference "#PWR?") (unit 1) (value "GND") (footprint "")
    )
    (path "/85f37fa2-721d-490e-996e-0f297446d4ba"
      (reference "#PWR?") (unit 1) (value "GND") (footprint "")
    )
    (path "/b01a50bf-cf8e-4c33-8e4f-1b81e88466dc"
      (reference "#PWR?") (unit 1) (value "+5V") (footprint "")
    )
    (path "/c35c8c72-3174-4cb6-b536-5e1f9805dfc0"
      (reference "#PWR?") (unit 1) (value "GND") (footprint "")
    )
    (path "/dfa25f08-b118-4968-8046-231e4beeba4c"
      (reference "#PWR?") (unit 1) (value "GND") (footprint "")
    )
    (path "/e4e7c861-1c88-4ebc-bfd2-6c5372111f4a"
      (reference "#PWR?") (unit 1) (value "+5V") (footprint "")
    )
    (path "/f130969b-2cc7-43fa-a169-4905b9d6ac22"
      (reference "#PWR?") (unit 1) (value "GND") (footprint "")
    )
    (path "/411f7f43-bfcd-4e82-a45f-5cb121a00e81"
      (reference "C?") (unit 1) (value "0.1u") (footprint "")
    )
    (path "/51e7f8a5-b372-4c7a-be8b-def53b0db902"
      (reference "C?") (unit 1) (value "0.1u") (footprint "")
    )
    (path "/9739358f-346f-43e5-aa1c-048269e8aaba"
      (reference "C?") (unit 1) (value "10u") (footprint "")
    )
    (path "/f884b278-2c41-4e98-a126-3ed30c0b33d8"
      (reference "C?") (unit 1) (value "0.1u") (footprint "")
    )
    (path "/6da3a243-6fc4-4fad-b38b-8335dc425d09"
      (reference "D?") (unit 1) (value "WS2812B") (footprint "LED_SMD:LED_WS2812B_PLCC4_5.0x5.0mm_P3.2mm")
    )
    (path "/c449c001-a9d0-42af-bc74-7bec78ba9e79"
      (reference "D?") (unit 1) (value "LED") (footprint "LED_THT:LED_D5.0mm")
    )
    (path "/25eb1a48-9d54-4140-91e2-1b4fe3b263ee"
      (reference "J?") (unit 1) (value "POWER") (footprint "")
    )
    (path "/429b8742-d169-4066-babc-7a33c267881d"
      (reference "J?") (unit 1) (value "Heater") (footprint "")
    )
    (path "/6c26651d-8699-47aa-a0cc-659632ed5ea7"
      (reference "J?") (unit 1) (value "Display") (footprint "")
    )
    (path "/f4f1a15e-5f9a-4ee9-9f7d-3632783ed034"
      (reference "J?") (unit 1) (value "Conn_01x03") (footprint "")
    )
    (path "/d7e2a440-61b5-45b6-9426-9cac74a69f2e"
      (reference "JP?") (unit 1) (value "SDA") (footprint "")
    )
    (path "/f12e7877-739d-40d9-8da5-30034b5274b1"
      (reference "JP?") (unit 1) (value "SCL") (footprint "")
    )
    (path "/5a2373a3-e379-4f85-995e-2d0b731e0f88"
      (reference "L?") (unit 1) (value "100u") (footprint "")
    )
    (path "/33e20a99-41d2-4172-acaa-6a2e9aea2c8a"
      (reference "Q?") (unit 1) (value "IRF7343PBF") (footprint "Package_SO:SOIC-8_3.9x4.9mm_P1.27mm")
    )
    (path "/d3e5342c-a56e-43c2-9dfb-5c253e737cb5"
      (reference "Q?") (unit 2) (value "IRF7343PBF") (footprint "Package_SO:SOIC-8_3.9x4.9mm_P1.27mm")
    )
    (path "/0a9c91c3-eee2-4106-821a-522cfb5f908f"
      (reference "R?") (unit 1) (value "1k") (footprint "")
    )
    (path "/16d6ec3f-b412-4f00-aa9a-dadbc68e7df5"
      (reference "R?") (unit 1) (value "4.7k") (footprint "")
    )
    (path "/34114e2b-d2e2-44fd-a5df-121ad9858c0c"
      (reference "R?") (unit 1) (value "100k") (footprint "Resistor_SMD:R_0603_1608Metric_Pad0.98x0.95mm_HandSolder")
    )
    (path "/5c4dd4d1-be82-443f-9d1a-b5b4602aef35"
      (reference "R?") (unit 1) (value "1k") (footprint "")
    )
    (path "/ac8c5cc1-0235-4973-8fc9-1169a844eb32"
      (reference "R?") (unit 1) (value "10k") (footprint "")
    )
    (path "/c9cc7c3d-79c0-4a2b-8af5-d461c87a1c16"
      (reference "R?") (unit 1) (value "1k") (footprint "Resistor_SMD:R_0805_2012Metric_Pad1.20x1.40mm_HandSolder")
    )
    (path "/da50fbb8-3b0a-47bd-a030-0128d46d3761"
      (reference "R?") (unit 1) (value "100k") (footprint "Resistor_SMD:R_0603_1608Metric_Pad0.98x0.95mm_HandSolder")
    )
    (path "/30f20aaa-4143-4d13-a2c2-b6fcf6c731de"
      (reference "SW?") (unit 1) (value "BUTTON") (footprint "")
    )
    (path "/1de33f64-ba28-40f3-8dce-dc3fc90ac12a"
      (reference "TH?") (unit 1) (value "Thermistor_NTC") (footprint "")
    )
    (path "/c5da138c-b53d-4e38-b4e2-2c9101d2b2ab"
      (reference "U?") (unit 1) (value "ATtiny402-SS") (footprint "Package_SO:SOIC-8_3.9x4.9mm_P1.27mm")
    )
  )
)
